('/Users/rc/tutoriales/raa-bee-code/search-excel-data/appExp/build/read/PKG-00.pkg',
 {'BINARY': 1,
  'DATA': 1,
  'EXECUTABLE': 1,
  'EXTENSION': 1,
  'PYMODULE': 1,
  'PYSOURCE': 1,
  'PYZ': 0},
 [('PYZ-00.pyz',
   '/Users/rc/tutoriales/raa-bee-code/search-excel-data/appExp/build/read/PYZ-00.pyz',
   'PYZ'),
  ('_struct',
   '/usr/local/Cellar/python/3.7.6_1/Frameworks/Python.framework/Versions/3.7/lib/python3.7/lib-dynload/_struct.cpython-37m-darwin.so',
   'EXTENSION'),
  ('zlib',
   '/usr/local/Cellar/python/3.7.6_1/Frameworks/Python.framework/Versions/3.7/lib/python3.7/lib-dynload/zlib.cpython-37m-darwin.so',
   'EXTENSION'),
  ('struct',
   '/usr/local/Cellar/python/3.7.6_1/Frameworks/Python.framework/Versions/3.7/lib/python3.7/struct.pyo',
   'PYMODULE'),
  ('pyimod01_os_path',
   '/usr/local/lib/python3.7/site-packages/PyInstaller/loader/pyimod01_os_path.pyc',
   'PYMODULE'),
  ('pyimod02_archive',
   '/usr/local/lib/python3.7/site-packages/PyInstaller/loader/pyimod02_archive.pyc',
   'PYMODULE'),
  ('pyimod03_importers',
   '/usr/local/lib/python3.7/site-packages/PyInstaller/loader/pyimod03_importers.pyc',
   'PYMODULE'),
  ('pyiboot01_bootstrap',
   '/usr/local/lib/python3.7/site-packages/PyInstaller/loader/pyiboot01_bootstrap.py',
   'PYSOURCE'),
  ('pyi_rth__tkinter',
   '/usr/local/lib/python3.7/site-packages/PyInstaller/loader/rthooks/pyi_rth__tkinter.py',
   'PYSOURCE'),
  ('read',
   '/Users/rc/tutoriales/raa-bee-code/search-excel-data/read.py',
   'PYSOURCE'),
  ('Python',
   '/usr/local/Cellar/python/3.7.6_1/Frameworks/Python.framework/Versions/3.7/Python',
   'BINARY'),
  ('_datetime',
   '/usr/local/Cellar/python/3.7.6_1/Frameworks/Python.framework/Versions/3.7/lib/python3.7/lib-dynload/_datetime.cpython-37m-darwin.so',
   'EXTENSION'),
  ('math',
   '/usr/local/Cellar/python/3.7.6_1/Frameworks/Python.framework/Versions/3.7/lib/python3.7/lib-dynload/math.cpython-37m-darwin.so',
   'EXTENSION'),
  ('_pickle',
   '/usr/local/Cellar/python/3.7.6_1/Frameworks/Python.framework/Versions/3.7/lib/python3.7/lib-dynload/_pickle.cpython-37m-darwin.so',
   'EXTENSION'),
  ('_socket',
   '/usr/local/Cellar/python/3.7.6_1/Frameworks/Python.framework/Versions/3.7/lib/python3.7/lib-dynload/_socket.cpython-37m-darwin.so',
   'EXTENSION'),
  ('binascii',
   '/usr/local/Cellar/python/3.7.6_1/Frameworks/Python.framework/Versions/3.7/lib/python3.7/lib-dynload/binascii.cpython-37m-darwin.so',
   'EXTENSION'),
  ('grp',
   '/usr/local/Cellar/python/3.7.6_1/Frameworks/Python.framework/Versions/3.7/lib/python3.7/lib-dynload/grp.cpython-37m-darwin.so',
   'EXTENSION'),
  ('_lzma',
   '/usr/local/Cellar/python/3.7.6_1/Frameworks/Python.framework/Versions/3.7/lib/python3.7/lib-dynload/_lzma.cpython-37m-darwin.so',
   'EXTENSION'),
  ('_bz2',
   '/usr/local/Cellar/python/3.7.6_1/Frameworks/Python.framework/Versions/3.7/lib/python3.7/lib-dynload/_bz2.cpython-37m-darwin.so',
   'EXTENSION'),
  ('select',
   '/usr/local/Cellar/python/3.7.6_1/Frameworks/Python.framework/Versions/3.7/lib/python3.7/lib-dynload/select.cpython-37m-darwin.so',
   'EXTENSION'),
  ('_random',
   '/usr/local/Cellar/python/3.7.6_1/Frameworks/Python.framework/Versions/3.7/lib/python3.7/lib-dynload/_random.cpython-37m-darwin.so',
   'EXTENSION'),
  ('_bisect',
   '/usr/local/Cellar/python/3.7.6_1/Frameworks/Python.framework/Versions/3.7/lib/python3.7/lib-dynload/_bisect.cpython-37m-darwin.so',
   'EXTENSION'),
  ('_hashlib',
   '/usr/local/Cellar/python/3.7.6_1/Frameworks/Python.framework/Versions/3.7/lib/python3.7/lib-dynload/_hashlib.cpython-37m-darwin.so',
   'EXTENSION'),
  ('_sha3',
   '/usr/local/Cellar/python/3.7.6_1/Frameworks/Python.framework/Versions/3.7/lib/python3.7/lib-dynload/_sha3.cpython-37m-darwin.so',
   'EXTENSION'),
  ('_blake2',
   '/usr/local/Cellar/python/3.7.6_1/Frameworks/Python.framework/Versions/3.7/lib/python3.7/lib-dynload/_blake2.cpython-37m-darwin.so',
   'EXTENSION'),
  ('_sha512',
   '/usr/local/Cellar/python/3.7.6_1/Frameworks/Python.framework/Versions/3.7/lib/python3.7/lib-dynload/_sha512.cpython-37m-darwin.so',
   'EXTENSION'),
  ('_sha256',
   '/usr/local/Cellar/python/3.7.6_1/Frameworks/Python.framework/Versions/3.7/lib/python3.7/lib-dynload/_sha256.cpython-37m-darwin.so',
   'EXTENSION'),
  ('_md5',
   '/usr/local/Cellar/python/3.7.6_1/Frameworks/Python.framework/Versions/3.7/lib/python3.7/lib-dynload/_md5.cpython-37m-darwin.so',
   'EXTENSION'),
  ('_sha1',
   '/usr/local/Cellar/python/3.7.6_1/Frameworks/Python.framework/Versions/3.7/lib/python3.7/lib-dynload/_sha1.cpython-37m-darwin.so',
   'EXTENSION'),
  ('_ssl',
   '/usr/local/Cellar/python/3.7.6_1/Frameworks/Python.framework/Versions/3.7/lib/python3.7/lib-dynload/_ssl.cpython-37m-darwin.so',
   'EXTENSION'),
  ('termios',
   '/usr/local/Cellar/python/3.7.6_1/Frameworks/Python.framework/Versions/3.7/lib/python3.7/lib-dynload/termios.cpython-37m-darwin.so',
   'EXTENSION'),
  ('_posixsubprocess',
   '/usr/local/Cellar/python/3.7.6_1/Frameworks/Python.framework/Versions/3.7/lib/python3.7/lib-dynload/_posixsubprocess.cpython-37m-darwin.so',
   'EXTENSION'),
  ('unicodedata',
   '/usr/local/Cellar/python/3.7.6_1/Frameworks/Python.framework/Versions/3.7/lib/python3.7/lib-dynload/unicodedata.cpython-37m-darwin.so',
   'EXTENSION'),
  ('_scproxy',
   '/usr/local/Cellar/python/3.7.6_1/Frameworks/Python.framework/Versions/3.7/lib/python3.7/lib-dynload/_scproxy.cpython-37m-darwin.so',
   'EXTENSION'),
  ('pyexpat',
   '/usr/local/Cellar/python/3.7.6_1/Frameworks/Python.framework/Versions/3.7/lib/python3.7/lib-dynload/pyexpat.cpython-37m-darwin.so',
   'EXTENSION'),
  ('readline',
   '/usr/local/Cellar/python/3.7.6_1/Frameworks/Python.framework/Versions/3.7/lib/python3.7/lib-dynload/readline.cpython-37m-darwin.so',
   'EXTENSION'),
  ('_opcode',
   '/usr/local/Cellar/python/3.7.6_1/Frameworks/Python.framework/Versions/3.7/lib/python3.7/lib-dynload/_opcode.cpython-37m-darwin.so',
   'EXTENSION'),
  ('_heapq',
   '/usr/local/Cellar/python/3.7.6_1/Frameworks/Python.framework/Versions/3.7/lib/python3.7/lib-dynload/_heapq.cpython-37m-darwin.so',
   'EXTENSION'),
  ('_multibytecodec',
   '/usr/local/Cellar/python/3.7.6_1/Frameworks/Python.framework/Versions/3.7/lib/python3.7/lib-dynload/_multibytecodec.cpython-37m-darwin.so',
   'EXTENSION'),
  ('_codecs_kr',
   '/usr/local/Cellar/python/3.7.6_1/Frameworks/Python.framework/Versions/3.7/lib/python3.7/lib-dynload/_codecs_kr.cpython-37m-darwin.so',
   'EXTENSION'),
  ('_codecs_jp',
   '/usr/local/Cellar/python/3.7.6_1/Frameworks/Python.framework/Versions/3.7/lib/python3.7/lib-dynload/_codecs_jp.cpython-37m-darwin.so',
   'EXTENSION'),
  ('_codecs_iso2022',
   '/usr/local/Cellar/python/3.7.6_1/Frameworks/Python.framework/Versions/3.7/lib/python3.7/lib-dynload/_codecs_iso2022.cpython-37m-darwin.so',
   'EXTENSION'),
  ('_codecs_cn',
   '/usr/local/Cellar/python/3.7.6_1/Frameworks/Python.framework/Versions/3.7/lib/python3.7/lib-dynload/_codecs_cn.cpython-37m-darwin.so',
   'EXTENSION'),
  ('_codecs_tw',
   '/usr/local/Cellar/python/3.7.6_1/Frameworks/Python.framework/Versions/3.7/lib/python3.7/lib-dynload/_codecs_tw.cpython-37m-darwin.so',
   'EXTENSION'),
  ('_codecs_hk',
   '/usr/local/Cellar/python/3.7.6_1/Frameworks/Python.framework/Versions/3.7/lib/python3.7/lib-dynload/_codecs_hk.cpython-37m-darwin.so',
   'EXTENSION'),
  ('resource',
   '/usr/local/Cellar/python/3.7.6_1/Frameworks/Python.framework/Versions/3.7/lib/python3.7/lib-dynload/resource.cpython-37m-darwin.so',
   'EXTENSION'),
  ('_contextvars',
   '/usr/local/Cellar/python/3.7.6_1/Frameworks/Python.framework/Versions/3.7/lib/python3.7/lib-dynload/_contextvars.cpython-37m-darwin.so',
   'EXTENSION'),
  ('_decimal',
   '/usr/local/Cellar/python/3.7.6_1/Frameworks/Python.framework/Versions/3.7/lib/python3.7/lib-dynload/_decimal.cpython-37m-darwin.so',
   'EXTENSION'),
  ('_tkinter',
   '/usr/local/Cellar/python/3.7.6_1/Frameworks/Python.framework/Versions/3.7/lib/python3.7/lib-dynload/_tkinter.cpython-37m-darwin.so',
   'EXTENSION'),
  ('mmap',
   '/usr/local/Cellar/python/3.7.6_1/Frameworks/Python.framework/Versions/3.7/lib/python3.7/lib-dynload/mmap.cpython-37m-darwin.so',
   'EXTENSION'),
  ('_elementtree',
   '/usr/local/Cellar/python/3.7.6_1/Frameworks/Python.framework/Versions/3.7/lib/python3.7/lib-dynload/_elementtree.cpython-37m-darwin.so',
   'EXTENSION'),
  ('array',
   '/usr/local/Cellar/python/3.7.6_1/Frameworks/Python.framework/Versions/3.7/lib/python3.7/lib-dynload/array.cpython-37m-darwin.so',
   'EXTENSION'),
  ('liblzma.5.dylib', '/usr/local/opt/xz/lib/liblzma.5.dylib', 'BINARY'),
  ('libcrypto.1.1.dylib',
   '/usr/local/opt/openssl@1.1/lib/libcrypto.1.1.dylib',
   'BINARY'),
  ('libssl.1.1.dylib',
   '/usr/local/opt/openssl@1.1/lib/libssl.1.1.dylib',
   'BINARY'),
  ('libreadline.8.dylib',
   '/usr/local/opt/readline/lib/libreadline.8.dylib',
   'BINARY'),
  ('base_library.zip',
   '/Users/rc/tutoriales/raa-bee-code/search-excel-data/appExp/build/read/base_library.zip',
   'DATA'),
  ('tk/ttk/combobox.tcl',
   '/System/Library/Frameworks/Tk.framework/Versions/8.5/Resources/Scripts/ttk/combobox.tcl',
   'DATA'),
  ('tcl/msgs/da.msg',
   '/System/Library/Frameworks/Tcl.framework/Versions/8.5/Resources/Scripts/msgs/da.msg',
   'DATA'),
  ('tcl/encoding/iso8859-4.enc',
   '/System/Library/Frameworks/Tcl.framework/Versions/8.5/Resources/Scripts/encoding/iso8859-4.enc',
   'DATA'),
  ('tcl/msgs/es.msg',
   '/System/Library/Frameworks/Tcl.framework/Versions/8.5/Resources/Scripts/msgs/es.msg',
   'DATA'),
  ('tcl/msgs/uk.msg',
   '/System/Library/Frameworks/Tcl.framework/Versions/8.5/Resources/Scripts/msgs/uk.msg',
   'DATA'),
  ('tcl/msgs/ta.msg',
   '/System/Library/Frameworks/Tcl.framework/Versions/8.5/Resources/Scripts/msgs/ta.msg',
   'DATA'),
  ('tcl/encoding/shiftjis.enc',
   '/System/Library/Frameworks/Tcl.framework/Versions/8.5/Resources/Scripts/encoding/shiftjis.enc',
   'DATA'),
  ('tcl/encoding/macThai.enc',
   '/System/Library/Frameworks/Tcl.framework/Versions/8.5/Resources/Scripts/encoding/macThai.enc',
   'DATA'),
  ('tcl/msgs/ar_jo.msg',
   '/System/Library/Frameworks/Tcl.framework/Versions/8.5/Resources/Scripts/msgs/ar_jo.msg',
   'DATA'),
  ('tk/focus.tcl',
   '/System/Library/Frameworks/Tk.framework/Versions/8.5/Resources/Scripts/focus.tcl',
   'DATA'),
  ('tcl/msgs/eu_es.msg',
   '/System/Library/Frameworks/Tcl.framework/Versions/8.5/Resources/Scripts/msgs/eu_es.msg',
   'DATA'),
  ('tcl/msgs/ko_kr.msg',
   '/System/Library/Frameworks/Tcl.framework/Versions/8.5/Resources/Scripts/msgs/ko_kr.msg',
   'DATA'),
  ('tcl/msgs/mr.msg',
   '/System/Library/Frameworks/Tcl.framework/Versions/8.5/Resources/Scripts/msgs/mr.msg',
   'DATA'),
  ('tcl/msgs/en_ie.msg',
   '/System/Library/Frameworks/Tcl.framework/Versions/8.5/Resources/Scripts/msgs/en_ie.msg',
   'DATA'),
  ('tk/ttk/defaults.tcl',
   '/System/Library/Frameworks/Tk.framework/Versions/8.5/Resources/Scripts/ttk/defaults.tcl',
   'DATA'),
  ('tcl/msgs/th.msg',
   '/System/Library/Frameworks/Tcl.framework/Versions/8.5/Resources/Scripts/msgs/th.msg',
   'DATA'),
  ('tcl/parray.tcl',
   '/System/Library/Frameworks/Tcl.framework/Versions/8.5/Resources/Scripts/parray.tcl',
   'DATA'),
  ('tcl/msgs/gv_gb.msg',
   '/System/Library/Frameworks/Tcl.framework/Versions/8.5/Resources/Scripts/msgs/gv_gb.msg',
   'DATA'),
  ('tcl/encoding/cp1255.enc',
   '/System/Library/Frameworks/Tcl.framework/Versions/8.5/Resources/Scripts/encoding/cp1255.enc',
   'DATA'),
  ('tcl/msgs/vi.msg',
   '/System/Library/Frameworks/Tcl.framework/Versions/8.5/Resources/Scripts/msgs/vi.msg',
   'DATA'),
  ('tcl/msgs/ru_ua.msg',
   '/System/Library/Frameworks/Tcl.framework/Versions/8.5/Resources/Scripts/msgs/ru_ua.msg',
   'DATA'),
  ('tk/ttk/scale.tcl',
   '/System/Library/Frameworks/Tk.framework/Versions/8.5/Resources/Scripts/ttk/scale.tcl',
   'DATA'),
  ('tk/images/logo100.gif',
   '/System/Library/Frameworks/Tk.framework/Versions/8.5/Resources/Scripts/images/logo100.gif',
   'DATA'),
  ('tcl/msgs/sh.msg',
   '/System/Library/Frameworks/Tcl.framework/Versions/8.5/Resources/Scripts/msgs/sh.msg',
   'DATA'),
  ('tcl/tclIndex',
   '/System/Library/Frameworks/Tcl.framework/Versions/8.5/Resources/Scripts/tclIndex',
   'DATA'),
  ('tcl/encoding/iso8859-2.enc',
   '/System/Library/Frameworks/Tcl.framework/Versions/8.5/Resources/Scripts/encoding/iso8859-2.enc',
   'DATA'),
  ('tk/msgs/de.msg',
   '/System/Library/Frameworks/Tk.framework/Versions/8.5/Resources/Scripts/msgs/de.msg',
   'DATA'),
  ('tcl/msgs/ms.msg',
   '/System/Library/Frameworks/Tcl.framework/Versions/8.5/Resources/Scripts/msgs/ms.msg',
   'DATA'),
  ('tcl/encoding/cp932.enc',
   '/System/Library/Frameworks/Tcl.framework/Versions/8.5/Resources/Scripts/encoding/cp932.enc',
   'DATA'),
  ('tk/msgs/nl.msg',
   '/System/Library/Frameworks/Tk.framework/Versions/8.5/Resources/Scripts/msgs/nl.msg',
   'DATA'),
  ('tcl/opt0.4/optparse.tcl',
   '/System/Library/Frameworks/Tcl.framework/Versions/8.5/Resources/Scripts/opt0.4/optparse.tcl',
   'DATA'),
  ('tcl/msgs/sw.msg',
   '/System/Library/Frameworks/Tcl.framework/Versions/8.5/Resources/Scripts/msgs/sw.msg',
   'DATA'),
  ('tcl/encoding/cp737.enc',
   '/System/Library/Frameworks/Tcl.framework/Versions/8.5/Resources/Scripts/encoding/cp737.enc',
   'DATA'),
  ('tcl/encoding/jis0212.enc',
   '/System/Library/Frameworks/Tcl.framework/Versions/8.5/Resources/Scripts/encoding/jis0212.enc',
   'DATA'),
  ('tcl/encoding/cp1250.enc',
   '/System/Library/Frameworks/Tcl.framework/Versions/8.5/Resources/Scripts/encoding/cp1250.enc',
   'DATA'),
  ('tcl/msgs/sl.msg',
   '/System/Library/Frameworks/Tcl.framework/Versions/8.5/Resources/Scripts/msgs/sl.msg',
   'DATA'),
  ('tcl/msgs/tr.msg',
   '/System/Library/Frameworks/Tcl.framework/Versions/8.5/Resources/Scripts/msgs/tr.msg',
   'DATA'),
  ('tcl/encoding/gb2312.enc',
   '/System/Library/Frameworks/Tcl.framework/Versions/8.5/Resources/Scripts/encoding/gb2312.enc',
   'DATA'),
  ('tk/images/logoMed.gif',
   '/System/Library/Frameworks/Tk.framework/Versions/8.5/Resources/Scripts/images/logoMed.gif',
   'DATA'),
  ('tk/ttk/altTheme.tcl',
   '/System/Library/Frameworks/Tk.framework/Versions/8.5/Resources/Scripts/ttk/altTheme.tcl',
   'DATA'),
  ('tcl/msgs/en_ph.msg',
   '/System/Library/Frameworks/Tcl.framework/Versions/8.5/Resources/Scripts/msgs/en_ph.msg',
   'DATA'),
  ('tcl/msgs/kok.msg',
   '/System/Library/Frameworks/Tcl.framework/Versions/8.5/Resources/Scripts/msgs/kok.msg',
   'DATA'),
  ('tcl/msgs/ga_ie.msg',
   '/System/Library/Frameworks/Tcl.framework/Versions/8.5/Resources/Scripts/msgs/ga_ie.msg',
   'DATA'),
  ('tcl/encoding/cp950.enc',
   '/System/Library/Frameworks/Tcl.framework/Versions/8.5/Resources/Scripts/encoding/cp950.enc',
   'DATA'),
  ('tcl/encoding/iso8859-6.enc',
   '/System/Library/Frameworks/Tcl.framework/Versions/8.5/Resources/Scripts/encoding/iso8859-6.enc',
   'DATA'),
  ('tk/images/pwrdLogo100.gif',
   '/System/Library/Frameworks/Tk.framework/Versions/8.5/Resources/Scripts/images/pwrdLogo100.gif',
   'DATA'),
  ('tcl/msgs/nb.msg',
   '/System/Library/Frameworks/Tcl.framework/Versions/8.5/Resources/Scripts/msgs/nb.msg',
   'DATA'),
  ('tcl/encoding/big5.enc',
   '/System/Library/Frameworks/Tcl.framework/Versions/8.5/Resources/Scripts/encoding/big5.enc',
   'DATA'),
  ('tcl/encoding/euc-kr.enc',
   '/System/Library/Frameworks/Tcl.framework/Versions/8.5/Resources/Scripts/encoding/euc-kr.enc',
   'DATA'),
  ('tcl/msgs/ar_lb.msg',
   '/System/Library/Frameworks/Tcl.framework/Versions/8.5/Resources/Scripts/msgs/ar_lb.msg',
   'DATA'),
  ('tk/obsolete.tcl',
   '/System/Library/Frameworks/Tk.framework/Versions/8.5/Resources/Scripts/obsolete.tcl',
   'DATA'),
  ('tcl/msgs/bg.msg',
   '/System/Library/Frameworks/Tcl.framework/Versions/8.5/Resources/Scripts/msgs/bg.msg',
   'DATA'),
  ('tcl/msgs/en_bw.msg',
   '/System/Library/Frameworks/Tcl.framework/Versions/8.5/Resources/Scripts/msgs/en_bw.msg',
   'DATA'),
  ('tcl/encoding/cp1251.enc',
   '/System/Library/Frameworks/Tcl.framework/Versions/8.5/Resources/Scripts/encoding/cp1251.enc',
   'DATA'),
  ('tk/msgs/da.msg',
   '/System/Library/Frameworks/Tk.framework/Versions/8.5/Resources/Scripts/msgs/da.msg',
   'DATA'),
  ('tcl/msgs/es_ec.msg',
   '/System/Library/Frameworks/Tcl.framework/Versions/8.5/Resources/Scripts/msgs/es_ec.msg',
   'DATA'),
  ('tcl/msgs/kw_gb.msg',
   '/System/Library/Frameworks/Tcl.framework/Versions/8.5/Resources/Scripts/msgs/kw_gb.msg',
   'DATA'),
  ('tcl/encoding/cp865.enc',
   '/System/Library/Frameworks/Tcl.framework/Versions/8.5/Resources/Scripts/encoding/cp865.enc',
   'DATA'),
  ('tcl/msgs/en_be.msg',
   '/System/Library/Frameworks/Tcl.framework/Versions/8.5/Resources/Scripts/msgs/en_be.msg',
   'DATA'),
  ('tcl/encoding/iso2022.enc',
   '/System/Library/Frameworks/Tcl.framework/Versions/8.5/Resources/Scripts/encoding/iso2022.enc',
   'DATA'),
  ('tcl/encoding/cp860.enc',
   '/System/Library/Frameworks/Tcl.framework/Versions/8.5/Resources/Scripts/encoding/cp860.enc',
   'DATA'),
  ('tcl/encoding/ascii.enc',
   '/System/Library/Frameworks/Tcl.framework/Versions/8.5/Resources/Scripts/encoding/ascii.enc',
   'DATA'),
  ('tk/mkpsenc.tcl',
   '/System/Library/Frameworks/Tk.framework/Versions/8.5/Resources/Scripts/mkpsenc.tcl',
   'DATA'),
  ('tcl/msgs/te_in.msg',
   '/System/Library/Frameworks/Tcl.framework/Versions/8.5/Resources/Scripts/msgs/te_in.msg',
   'DATA'),
  ('tcl/http1.0/http.tcl',
   '/System/Library/Frameworks/Tcl.framework/Versions/8.5/Resources/Scripts/http1.0/http.tcl',
   'DATA'),
  ('tk/ttk/clamTheme.tcl',
   '/System/Library/Frameworks/Tk.framework/Versions/8.5/Resources/Scripts/ttk/clamTheme.tcl',
   'DATA'),
  ('tk/safetk.tcl',
   '/System/Library/Frameworks/Tk.framework/Versions/8.5/Resources/Scripts/safetk.tcl',
   'DATA'),
  ('tcl/msgs/ar_in.msg',
   '/System/Library/Frameworks/Tcl.framework/Versions/8.5/Resources/Scripts/msgs/ar_in.msg',
   'DATA'),
  ('tk/msgs/el.msg',
   '/System/Library/Frameworks/Tk.framework/Versions/8.5/Resources/Scripts/msgs/el.msg',
   'DATA'),
  ('tcl/msgs/is.msg',
   '/System/Library/Frameworks/Tcl.framework/Versions/8.5/Resources/Scripts/msgs/is.msg',
   'DATA'),
  ('tk/dialog.tcl',
   '/System/Library/Frameworks/Tk.framework/Versions/8.5/Resources/Scripts/dialog.tcl',
   'DATA'),
  ('tcl/msgs/mk.msg',
   '/System/Library/Frameworks/Tcl.framework/Versions/8.5/Resources/Scripts/msgs/mk.msg',
   'DATA'),
  ('tk/ttk/menubutton.tcl',
   '/System/Library/Frameworks/Tk.framework/Versions/8.5/Resources/Scripts/ttk/menubutton.tcl',
   'DATA'),
  ('tcl/msgs/ca.msg',
   '/System/Library/Frameworks/Tcl.framework/Versions/8.5/Resources/Scripts/msgs/ca.msg',
   'DATA'),
  ('tk/msgs/sv.msg',
   '/System/Library/Frameworks/Tk.framework/Versions/8.5/Resources/Scripts/msgs/sv.msg',
   'DATA'),
  ('tk/msgs/ru.msg',
   '/System/Library/Frameworks/Tk.framework/Versions/8.5/Resources/Scripts/msgs/ru.msg',
   'DATA'),
  ('tk/unsupported.tcl',
   '/System/Library/Frameworks/Tk.framework/Versions/8.5/Resources/Scripts/unsupported.tcl',
   'DATA'),
  ('tcl/msgs/en_in.msg',
   '/System/Library/Frameworks/Tcl.framework/Versions/8.5/Resources/Scripts/msgs/en_in.msg',
   'DATA'),
  ('tcl/history.tcl',
   '/System/Library/Frameworks/Tcl.framework/Versions/8.5/Resources/Scripts/history.tcl',
   'DATA'),
  ('tcl/tclDTrace.d',
   '/System/Library/Frameworks/Tcl.framework/Versions/8.5/Resources/Scripts/tclDTrace.d',
   'DATA'),
  ('tcl/encoding/cp1257.enc',
   '/System/Library/Frameworks/Tcl.framework/Versions/8.5/Resources/Scripts/encoding/cp1257.enc',
   'DATA'),
  ('tk/ttk/entry.tcl',
   '/System/Library/Frameworks/Tk.framework/Versions/8.5/Resources/Scripts/ttk/entry.tcl',
   'DATA'),
  ('tcl/msgs/es_pe.msg',
   '/System/Library/Frameworks/Tcl.framework/Versions/8.5/Resources/Scripts/msgs/es_pe.msg',
   'DATA'),
  ('tcl/msgs/nl.msg',
   '/System/Library/Frameworks/Tcl.framework/Versions/8.5/Resources/Scripts/msgs/nl.msg',
   'DATA'),
  ('tcl/package.tcl',
   '/System/Library/Frameworks/Tcl.framework/Versions/8.5/Resources/Scripts/package.tcl',
   'DATA'),
  ('tcl/encoding/gb12345.enc',
   '/System/Library/Frameworks/Tcl.framework/Versions/8.5/Resources/Scripts/encoding/gb12345.enc',
   'DATA'),
  ('tk/xmfbox.tcl',
   '/System/Library/Frameworks/Tk.framework/Versions/8.5/Resources/Scripts/xmfbox.tcl',
   'DATA'),
  ('tk/ttk/panedwindow.tcl',
   '/System/Library/Frameworks/Tk.framework/Versions/8.5/Resources/Scripts/ttk/panedwindow.tcl',
   'DATA'),
  ('tk/images/logo64.gif',
   '/System/Library/Frameworks/Tk.framework/Versions/8.5/Resources/Scripts/images/logo64.gif',
   'DATA'),
  ('tk/msgbox.tcl',
   '/System/Library/Frameworks/Tk.framework/Versions/8.5/Resources/Scripts/msgbox.tcl',
   'DATA'),
  ('tcl/tclAppInit.c',
   '/System/Library/Frameworks/Tcl.framework/Versions/8.5/Resources/Scripts/tclAppInit.c',
   'DATA'),
  ('tcl/msgs/gv.msg',
   '/System/Library/Frameworks/Tcl.framework/Versions/8.5/Resources/Scripts/msgs/gv.msg',
   'DATA'),
  ('tcl/msgs/ja.msg',
   '/System/Library/Frameworks/Tcl.framework/Versions/8.5/Resources/Scripts/msgs/ja.msg',
   'DATA'),
  ('tcl/msgs/mr_in.msg',
   '/System/Library/Frameworks/Tcl.framework/Versions/8.5/Resources/Scripts/msgs/mr_in.msg',
   'DATA'),
  ('tcl/encoding/cp1253.enc',
   '/System/Library/Frameworks/Tcl.framework/Versions/8.5/Resources/Scripts/encoding/cp1253.enc',
   'DATA'),
  ('tcl/encoding/iso8859-9.enc',
   '/System/Library/Frameworks/Tcl.framework/Versions/8.5/Resources/Scripts/encoding/iso8859-9.enc',
   'DATA'),
  ('tk/ttk/cursors.tcl',
   '/System/Library/Frameworks/Tk.framework/Versions/8.5/Resources/Scripts/ttk/cursors.tcl',
   'DATA'),
  ('tk/images/logoLarge.gif',
   '/System/Library/Frameworks/Tk.framework/Versions/8.5/Resources/Scripts/images/logoLarge.gif',
   'DATA'),
  ('tcl/encoding/cp850.enc',
   '/System/Library/Frameworks/Tcl.framework/Versions/8.5/Resources/Scripts/encoding/cp850.enc',
   'DATA'),
  ('tcl/word.tcl',
   '/System/Library/Frameworks/Tcl.framework/Versions/8.5/Resources/Scripts/word.tcl',
   'DATA'),
  ('tk/ttk/notebook.tcl',
   '/System/Library/Frameworks/Tk.framework/Versions/8.5/Resources/Scripts/ttk/notebook.tcl',
   'DATA'),
  ('tcl/encoding/cp437.enc',
   '/System/Library/Frameworks/Tcl.framework/Versions/8.5/Resources/Scripts/encoding/cp437.enc',
   'DATA'),
  ('tcl/msgs/it_ch.msg',
   '/System/Library/Frameworks/Tcl.framework/Versions/8.5/Resources/Scripts/msgs/it_ch.msg',
   'DATA'),
  ('tcl/encoding/macCentEuro.enc',
   '/System/Library/Frameworks/Tcl.framework/Versions/8.5/Resources/Scripts/encoding/macCentEuro.enc',
   'DATA'),
  ('tcl/msgs/it.msg',
   '/System/Library/Frameworks/Tcl.framework/Versions/8.5/Resources/Scripts/msgs/it.msg',
   'DATA'),
  ('tcl/msgs/fr_be.msg',
   '/System/Library/Frameworks/Tcl.framework/Versions/8.5/Resources/Scripts/msgs/fr_be.msg',
   'DATA'),
  ('tcl/msgs/en_gb.msg',
   '/System/Library/Frameworks/Tcl.framework/Versions/8.5/Resources/Scripts/msgs/en_gb.msg',
   'DATA'),
  ('tcl/encoding/cp949.enc',
   '/System/Library/Frameworks/Tcl.framework/Versions/8.5/Resources/Scripts/encoding/cp949.enc',
   'DATA'),
  ('tk/text.tcl',
   '/System/Library/Frameworks/Tk.framework/Versions/8.5/Resources/Scripts/text.tcl',
   'DATA'),
  ('tcl/opt0.4/pkgIndex.tcl',
   '/System/Library/Frameworks/Tcl.framework/Versions/8.5/Resources/Scripts/opt0.4/pkgIndex.tcl',
   'DATA'),
  ('tcl/encoding/euc-jp.enc',
   '/System/Library/Frameworks/Tcl.framework/Versions/8.5/Resources/Scripts/encoding/euc-jp.enc',
   'DATA'),
  ('tk/images/tai-ku.gif',
   '/System/Library/Frameworks/Tk.framework/Versions/8.5/Resources/Scripts/images/tai-ku.gif',
   'DATA'),
  ('tcl/msgs/ta_in.msg',
   '/System/Library/Frameworks/Tcl.framework/Versions/8.5/Resources/Scripts/msgs/ta_in.msg',
   'DATA'),
  ('tcl/encoding/tis-620.enc',
   '/System/Library/Frameworks/Tcl.framework/Versions/8.5/Resources/Scripts/encoding/tis-620.enc',
   'DATA'),
  ('tcl/encoding/macCyrillic.enc',
   '/System/Library/Frameworks/Tcl.framework/Versions/8.5/Resources/Scripts/encoding/macCyrillic.enc',
   'DATA'),
  ('tk/scale.tcl',
   '/System/Library/Frameworks/Tk.framework/Versions/8.5/Resources/Scripts/scale.tcl',
   'DATA'),
  ('tcl/msgs/sk.msg',
   '/System/Library/Frameworks/Tcl.framework/Versions/8.5/Resources/Scripts/msgs/sk.msg',
   'DATA'),
  ('tcl/http1.0/pkgIndex.tcl',
   '/System/Library/Frameworks/Tcl.framework/Versions/8.5/Resources/Scripts/http1.0/pkgIndex.tcl',
   'DATA'),
  ('tcl/encoding/macTurkish.enc',
   '/System/Library/Frameworks/Tcl.framework/Versions/8.5/Resources/Scripts/encoding/macTurkish.enc',
   'DATA'),
  ('tcl/msgs/de.msg',
   '/System/Library/Frameworks/Tcl.framework/Versions/8.5/Resources/Scripts/msgs/de.msg',
   'DATA'),
  ('tk/comdlg.tcl',
   '/System/Library/Frameworks/Tk.framework/Versions/8.5/Resources/Scripts/comdlg.tcl',
   'DATA'),
  ('tk/tkAppInit.c',
   '/System/Library/Frameworks/Tk.framework/Versions/8.5/Resources/Scripts/tkAppInit.c',
   'DATA'),
  ('tcl/encoding/jis0201.enc',
   '/System/Library/Frameworks/Tcl.framework/Versions/8.5/Resources/Scripts/encoding/jis0201.enc',
   'DATA'),
  ('tcl/msgs/es_uy.msg',
   '/System/Library/Frameworks/Tcl.framework/Versions/8.5/Resources/Scripts/msgs/es_uy.msg',
   'DATA'),
  ('tcl/msgs/es_mx.msg',
   '/System/Library/Frameworks/Tcl.framework/Versions/8.5/Resources/Scripts/msgs/es_mx.msg',
   'DATA'),
  ('tcl/msgs/zh_cn.msg',
   '/System/Library/Frameworks/Tcl.framework/Versions/8.5/Resources/Scripts/msgs/zh_cn.msg',
   'DATA'),
  ('tcl/msgs/en_sg.msg',
   '/System/Library/Frameworks/Tcl.framework/Versions/8.5/Resources/Scripts/msgs/en_sg.msg',
   'DATA'),
  ('tcl/encoding/iso8859-14.enc',
   '/System/Library/Frameworks/Tcl.framework/Versions/8.5/Resources/Scripts/encoding/iso8859-14.enc',
   'DATA'),
  ('tk/images/README',
   '/System/Library/Frameworks/Tk.framework/Versions/8.5/Resources/Scripts/images/README',
   'DATA'),
  ('tcl/msgs/kw.msg',
   '/System/Library/Frameworks/Tcl.framework/Versions/8.5/Resources/Scripts/msgs/kw.msg',
   'DATA'),
  ('tcl/encoding/macGreek.enc',
   '/System/Library/Frameworks/Tcl.framework/Versions/8.5/Resources/Scripts/encoding/macGreek.enc',
   'DATA'),
  ('tcl/encoding/macUkraine.enc',
   '/System/Library/Frameworks/Tcl.framework/Versions/8.5/Resources/Scripts/encoding/macUkraine.enc',
   'DATA'),
  ('tcl/msgs/gl.msg',
   '/System/Library/Frameworks/Tcl.framework/Versions/8.5/Resources/Scripts/msgs/gl.msg',
   'DATA'),
  ('tcl/safe.tcl',
   '/System/Library/Frameworks/Tcl.framework/Versions/8.5/Resources/Scripts/safe.tcl',
   'DATA'),
  ('tcl/msgs/es_cr.msg',
   '/System/Library/Frameworks/Tcl.framework/Versions/8.5/Resources/Scripts/msgs/es_cr.msg',
   'DATA'),
  ('tcl/encoding/cp1254.enc',
   '/System/Library/Frameworks/Tcl.framework/Versions/8.5/Resources/Scripts/encoding/cp1254.enc',
   'DATA'),
  ('tcl/msgs/bn.msg',
   '/System/Library/Frameworks/Tcl.framework/Versions/8.5/Resources/Scripts/msgs/bn.msg',
   'DATA'),
  ('tk/msgs/en.msg',
   '/System/Library/Frameworks/Tk.framework/Versions/8.5/Resources/Scripts/msgs/en.msg',
   'DATA'),
  ('tcl/msgs/ro.msg',
   '/System/Library/Frameworks/Tcl.framework/Versions/8.5/Resources/Scripts/msgs/ro.msg',
   'DATA'),
  ('tcl/msgs/de_at.msg',
   '/System/Library/Frameworks/Tcl.framework/Versions/8.5/Resources/Scripts/msgs/de_at.msg',
   'DATA'),
  ('tcl/encoding/cp1258.enc',
   '/System/Library/Frameworks/Tcl.framework/Versions/8.5/Resources/Scripts/encoding/cp1258.enc',
   'DATA'),
  ('tcl/init.tcl',
   '/System/Library/Frameworks/Tcl.framework/Versions/8.5/Resources/Scripts/init.tcl',
   'DATA'),
  ('tcl/msgs/es_pa.msg',
   '/System/Library/Frameworks/Tcl.framework/Versions/8.5/Resources/Scripts/msgs/es_pa.msg',
   'DATA'),
  ('tcl/msgs/fr_ca.msg',
   '/System/Library/Frameworks/Tcl.framework/Versions/8.5/Resources/Scripts/msgs/fr_ca.msg',
   'DATA'),
  ('tcl/encoding/macDingbats.enc',
   '/System/Library/Frameworks/Tcl.framework/Versions/8.5/Resources/Scripts/encoding/macDingbats.enc',
   'DATA'),
  ('tk/ttk/progress.tcl',
   '/System/Library/Frameworks/Tk.framework/Versions/8.5/Resources/Scripts/ttk/progress.tcl',
   'DATA'),
  ('tcl/msgs/fa_in.msg',
   '/System/Library/Frameworks/Tcl.framework/Versions/8.5/Resources/Scripts/msgs/fa_in.msg',
   'DATA'),
  ('tcl/msgs/es_ni.msg',
   '/System/Library/Frameworks/Tcl.framework/Versions/8.5/Resources/Scripts/msgs/es_ni.msg',
   'DATA'),
  ('tk/clrpick.tcl',
   '/System/Library/Frameworks/Tk.framework/Versions/8.5/Resources/Scripts/clrpick.tcl',
   'DATA'),
  ('tcl/encoding/jis0208.enc',
   '/System/Library/Frameworks/Tcl.framework/Versions/8.5/Resources/Scripts/encoding/jis0208.enc',
   'DATA'),
  ('tcl/encoding/iso8859-1.enc',
   '/System/Library/Frameworks/Tcl.framework/Versions/8.5/Resources/Scripts/encoding/iso8859-1.enc',
   'DATA'),
  ('tcl/msgs/sv.msg',
   '/System/Library/Frameworks/Tcl.framework/Versions/8.5/Resources/Scripts/msgs/sv.msg',
   'DATA'),
  ('tcl/msgs/es_hn.msg',
   '/System/Library/Frameworks/Tcl.framework/Versions/8.5/Resources/Scripts/msgs/es_hn.msg',
   'DATA'),
  ('tk/msgs/pl.msg',
   '/System/Library/Frameworks/Tk.framework/Versions/8.5/Resources/Scripts/msgs/pl.msg',
   'DATA'),
  ('tcl/msgs/hi.msg',
   '/System/Library/Frameworks/Tcl.framework/Versions/8.5/Resources/Scripts/msgs/hi.msg',
   'DATA'),
  ('tcl/encoding/cp874.enc',
   '/System/Library/Frameworks/Tcl.framework/Versions/8.5/Resources/Scripts/encoding/cp874.enc',
   'DATA'),
  ('tcl/msgs/kl.msg',
   '/System/Library/Frameworks/Tcl.framework/Versions/8.5/Resources/Scripts/msgs/kl.msg',
   'DATA'),
  ('tcl/encoding/iso2022-kr.enc',
   '/System/Library/Frameworks/Tcl.framework/Versions/8.5/Resources/Scripts/encoding/iso2022-kr.enc',
   'DATA'),
  ('tk/ttk/classicTheme.tcl',
   '/System/Library/Frameworks/Tk.framework/Versions/8.5/Resources/Scripts/ttk/classicTheme.tcl',
   'DATA'),
  ('tcl/msgs/kok_in.msg',
   '/System/Library/Frameworks/Tcl.framework/Versions/8.5/Resources/Scripts/msgs/kok_in.msg',
   'DATA'),
  ('tcl/msgs/hu.msg',
   '/System/Library/Frameworks/Tcl.framework/Versions/8.5/Resources/Scripts/msgs/hu.msg',
   'DATA'),
  ('tcl/msgs/ms_my.msg',
   '/System/Library/Frameworks/Tcl.framework/Versions/8.5/Resources/Scripts/msgs/ms_my.msg',
   'DATA'),
  ('tcl/msgs/en_ca.msg',
   '/System/Library/Frameworks/Tcl.framework/Versions/8.5/Resources/Scripts/msgs/en_ca.msg',
   'DATA'),
  ('tcl/msgs/hi_in.msg',
   '/System/Library/Frameworks/Tcl.framework/Versions/8.5/Resources/Scripts/msgs/hi_in.msg',
   'DATA'),
  ('tcl/msgs/he.msg',
   '/System/Library/Frameworks/Tcl.framework/Versions/8.5/Resources/Scripts/msgs/he.msg',
   'DATA'),
  ('tk/ttk/xpTheme.tcl',
   '/System/Library/Frameworks/Tk.framework/Versions/8.5/Resources/Scripts/ttk/xpTheme.tcl',
   'DATA'),
  ('tk/ttk/aquaTheme.tcl',
   '/System/Library/Frameworks/Tk.framework/Versions/8.5/Resources/Scripts/ttk/aquaTheme.tcl',
   'DATA'),
  ('tcl/encoding/macCroatian.enc',
   '/System/Library/Frameworks/Tcl.framework/Versions/8.5/Resources/Scripts/encoding/macCroatian.enc',
   'DATA'),
  ('tk/images/logo.eps',
   '/System/Library/Frameworks/Tk.framework/Versions/8.5/Resources/Scripts/images/logo.eps',
   'DATA'),
  ('tk/ttk/treeview.tcl',
   '/System/Library/Frameworks/Tk.framework/Versions/8.5/Resources/Scripts/ttk/treeview.tcl',
   'DATA'),
  ('tcl/encoding/cp936.enc',
   '/System/Library/Frameworks/Tcl.framework/Versions/8.5/Resources/Scripts/encoding/cp936.enc',
   'DATA'),
  ('tcl/encoding/macIceland.enc',
   '/System/Library/Frameworks/Tcl.framework/Versions/8.5/Resources/Scripts/encoding/macIceland.enc',
   'DATA'),
  ('tcl/encoding/iso8859-5.enc',
   '/System/Library/Frameworks/Tcl.framework/Versions/8.5/Resources/Scripts/encoding/iso8859-5.enc',
   'DATA'),
  ('tcl/msgs/fa_ir.msg',
   '/System/Library/Frameworks/Tcl.framework/Versions/8.5/Resources/Scripts/msgs/fa_ir.msg',
   'DATA'),
  ('tk/optMenu.tcl',
   '/System/Library/Frameworks/Tk.framework/Versions/8.5/Resources/Scripts/optMenu.tcl',
   'DATA'),
  ('tcl/encoding/cp862.enc',
   '/System/Library/Frameworks/Tcl.framework/Versions/8.5/Resources/Scripts/encoding/cp862.enc',
   'DATA'),
  ('tcl/encoding/iso2022-jp.enc',
   '/System/Library/Frameworks/Tcl.framework/Versions/8.5/Resources/Scripts/encoding/iso2022-jp.enc',
   'DATA'),
  ('tcl/msgs/mt.msg',
   '/System/Library/Frameworks/Tcl.framework/Versions/8.5/Resources/Scripts/msgs/mt.msg',
   'DATA'),
  ('tcl/msgs/fo_fo.msg',
   '/System/Library/Frameworks/Tcl.framework/Versions/8.5/Resources/Scripts/msgs/fo_fo.msg',
   'DATA'),
  ('tk/spinbox.tcl',
   '/System/Library/Frameworks/Tk.framework/Versions/8.5/Resources/Scripts/spinbox.tcl',
   'DATA'),
  ('tk/ttk/sizegrip.tcl',
   '/System/Library/Frameworks/Tk.framework/Versions/8.5/Resources/Scripts/ttk/sizegrip.tcl',
   'DATA'),
  ('tcl/msgs/en_hk.msg',
   '/System/Library/Frameworks/Tcl.framework/Versions/8.5/Resources/Scripts/msgs/en_hk.msg',
   'DATA'),
  ('tcl/msgs/zh_sg.msg',
   '/System/Library/Frameworks/Tcl.framework/Versions/8.5/Resources/Scripts/msgs/zh_sg.msg',
   'DATA'),
  ('tk/panedwindow.tcl',
   '/System/Library/Frameworks/Tk.framework/Versions/8.5/Resources/Scripts/panedwindow.tcl',
   'DATA'),
  ('tcl/msgs/nn.msg',
   '/System/Library/Frameworks/Tcl.framework/Versions/8.5/Resources/Scripts/msgs/nn.msg',
   'DATA'),
  ('tcl/msgs/zh_hk.msg',
   '/System/Library/Frameworks/Tcl.framework/Versions/8.5/Resources/Scripts/msgs/zh_hk.msg',
   'DATA'),
  ('tcl/msgs/fo.msg',
   '/System/Library/Frameworks/Tcl.framework/Versions/8.5/Resources/Scripts/msgs/fo.msg',
   'DATA'),
  ('tcl/msgs/es_gt.msg',
   '/System/Library/Frameworks/Tcl.framework/Versions/8.5/Resources/Scripts/msgs/es_gt.msg',
   'DATA'),
  ('tcl/encoding/cp861.enc',
   '/System/Library/Frameworks/Tcl.framework/Versions/8.5/Resources/Scripts/encoding/cp861.enc',
   'DATA'),
  ('tcl/encoding/iso8859-13.enc',
   '/System/Library/Frameworks/Tcl.framework/Versions/8.5/Resources/Scripts/encoding/iso8859-13.enc',
   'DATA'),
  ('tcl/encoding/koi8-r.enc',
   '/System/Library/Frameworks/Tcl.framework/Versions/8.5/Resources/Scripts/encoding/koi8-r.enc',
   'DATA'),
  ('tk/listbox.tcl',
   '/System/Library/Frameworks/Tk.framework/Versions/8.5/Resources/Scripts/listbox.tcl',
   'DATA'),
  ('tcl/msgs/es_ve.msg',
   '/System/Library/Frameworks/Tcl.framework/Versions/8.5/Resources/Scripts/msgs/es_ve.msg',
   'DATA'),
  ('tcl/msgs/lv.msg',
   '/System/Library/Frameworks/Tcl.framework/Versions/8.5/Resources/Scripts/msgs/lv.msg',
   'DATA'),
  ('tcl/msgs/af.msg',
   '/System/Library/Frameworks/Tcl.framework/Versions/8.5/Resources/Scripts/msgs/af.msg',
   'DATA'),
  ('tcl/msgs/eu.msg',
   '/System/Library/Frameworks/Tcl.framework/Versions/8.5/Resources/Scripts/msgs/eu.msg',
   'DATA'),
  ('tk/images/pwrdLogo.eps',
   '/System/Library/Frameworks/Tk.framework/Versions/8.5/Resources/Scripts/images/pwrdLogo.eps',
   'DATA'),
  ('tcl/msgs/pt_br.msg',
   '/System/Library/Frameworks/Tcl.framework/Versions/8.5/Resources/Scripts/msgs/pt_br.msg',
   'DATA'),
  ('tcl/msgs/zh_tw.msg',
   '/System/Library/Frameworks/Tcl.framework/Versions/8.5/Resources/Scripts/msgs/zh_tw.msg',
   'DATA'),
  ('tcl/encoding/koi8-u.enc',
   '/System/Library/Frameworks/Tcl.framework/Versions/8.5/Resources/Scripts/encoding/koi8-u.enc',
   'DATA'),
  ('tk/ttk/button.tcl',
   '/System/Library/Frameworks/Tk.framework/Versions/8.5/Resources/Scripts/ttk/button.tcl',
   'DATA'),
  ('tk/ttk/vistaTheme.tcl',
   '/System/Library/Frameworks/Tk.framework/Versions/8.5/Resources/Scripts/ttk/vistaTheme.tcl',
   'DATA'),
  ('tk/tearoff.tcl',
   '/System/Library/Frameworks/Tk.framework/Versions/8.5/Resources/Scripts/tearoff.tcl',
   'DATA'),
  ('tcl/msgs/en_au.msg',
   '/System/Library/Frameworks/Tcl.framework/Versions/8.5/Resources/Scripts/msgs/en_au.msg',
   'DATA'),
  ('tcl/encoding/macRoman.enc',
   '/System/Library/Frameworks/Tcl.framework/Versions/8.5/Resources/Scripts/encoding/macRoman.enc',
   'DATA'),
  ('tcl/msgs/sq.msg',
   '/System/Library/Frameworks/Tcl.framework/Versions/8.5/Resources/Scripts/msgs/sq.msg',
   'DATA'),
  ('tcl/msgs/id_id.msg',
   '/System/Library/Frameworks/Tcl.framework/Versions/8.5/Resources/Scripts/msgs/id_id.msg',
   'DATA'),
  ('tk/ttk/spinbox.tcl',
   '/System/Library/Frameworks/Tk.framework/Versions/8.5/Resources/Scripts/ttk/spinbox.tcl',
   'DATA'),
  ('tcl/msgs/eo.msg',
   '/System/Library/Frameworks/Tcl.framework/Versions/8.5/Resources/Scripts/msgs/eo.msg',
   'DATA'),
  ('tcl/encoding/iso8859-10.enc',
   '/System/Library/Frameworks/Tcl.framework/Versions/8.5/Resources/Scripts/encoding/iso8859-10.enc',
   'DATA'),
  ('tcl/encoding/symbol.enc',
   '/System/Library/Frameworks/Tcl.framework/Versions/8.5/Resources/Scripts/encoding/symbol.enc',
   'DATA'),
  ('tcl/encoding/cp857.enc',
   '/System/Library/Frameworks/Tcl.framework/Versions/8.5/Resources/Scripts/encoding/cp857.enc',
   'DATA'),
  ('tk/ttk/scrollbar.tcl',
   '/System/Library/Frameworks/Tk.framework/Versions/8.5/Resources/Scripts/ttk/scrollbar.tcl',
   'DATA'),
  ('tcl/msgs/af_za.msg',
   '/System/Library/Frameworks/Tcl.framework/Versions/8.5/Resources/Scripts/msgs/af_za.msg',
   'DATA'),
  ('tcl/encoding/dingbats.enc',
   '/System/Library/Frameworks/Tcl.framework/Versions/8.5/Resources/Scripts/encoding/dingbats.enc',
   'DATA'),
  ('tcl/msgs/es_cl.msg',
   '/System/Library/Frameworks/Tcl.framework/Versions/8.5/Resources/Scripts/msgs/es_cl.msg',
   'DATA'),
  ('tk/msgs/fr.msg',
   '/System/Library/Frameworks/Tk.framework/Versions/8.5/Resources/Scripts/msgs/fr.msg',
   'DATA'),
  ('tk/scrlbar.tcl',
   '/System/Library/Frameworks/Tk.framework/Versions/8.5/Resources/Scripts/scrlbar.tcl',
   'DATA'),
  ('tcl/msgs/es_bo.msg',
   '/System/Library/Frameworks/Tcl.framework/Versions/8.5/Resources/Scripts/msgs/es_bo.msg',
   'DATA'),
  ('tcl/msgs/lt.msg',
   '/System/Library/Frameworks/Tcl.framework/Versions/8.5/Resources/Scripts/msgs/lt.msg',
   'DATA'),
  ('tcl/encoding/gb1988.enc',
   '/System/Library/Frameworks/Tcl.framework/Versions/8.5/Resources/Scripts/encoding/gb1988.enc',
   'DATA'),
  ('tk/images/pwrdLogo175.gif',
   '/System/Library/Frameworks/Tk.framework/Versions/8.5/Resources/Scripts/images/pwrdLogo175.gif',
   'DATA'),
  ('tcl/encoding/cp775.enc',
   '/System/Library/Frameworks/Tcl.framework/Versions/8.5/Resources/Scripts/encoding/cp775.enc',
   'DATA'),
  ('tk/images/pwrdLogo75.gif',
   '/System/Library/Frameworks/Tk.framework/Versions/8.5/Resources/Scripts/images/pwrdLogo75.gif',
   'DATA'),
  ('tcl/msgs/ar_sy.msg',
   '/System/Library/Frameworks/Tcl.framework/Versions/8.5/Resources/Scripts/msgs/ar_sy.msg',
   'DATA'),
  ('tcl/msgs/de_be.msg',
   '/System/Library/Frameworks/Tcl.framework/Versions/8.5/Resources/Scripts/msgs/de_be.msg',
   'DATA'),
  ('tcl/clock.tcl',
   '/System/Library/Frameworks/Tcl.framework/Versions/8.5/Resources/Scripts/clock.tcl',
   'DATA'),
  ('tcl/encoding/cp866.enc',
   '/System/Library/Frameworks/Tcl.framework/Versions/8.5/Resources/Scripts/encoding/cp866.enc',
   'DATA'),
  ('tcl/encoding/cp863.enc',
   '/System/Library/Frameworks/Tcl.framework/Versions/8.5/Resources/Scripts/encoding/cp863.enc',
   'DATA'),
  ('tk/console.tcl',
   '/System/Library/Frameworks/Tk.framework/Versions/8.5/Resources/Scripts/console.tcl',
   'DATA'),
  ('tcl/msgs/en_za.msg',
   '/System/Library/Frameworks/Tcl.framework/Versions/8.5/Resources/Scripts/msgs/en_za.msg',
   'DATA'),
  ('tk/msgs/eo.msg',
   '/System/Library/Frameworks/Tk.framework/Versions/8.5/Resources/Scripts/msgs/eo.msg',
   'DATA'),
  ('tk/ttk/fonts.tcl',
   '/System/Library/Frameworks/Tk.framework/Versions/8.5/Resources/Scripts/ttk/fonts.tcl',
   'DATA'),
  ('tcl/msgs/es_do.msg',
   '/System/Library/Frameworks/Tcl.framework/Versions/8.5/Resources/Scripts/msgs/es_do.msg',
   'DATA'),
  ('tcl/msgs/fr_ch.msg',
   '/System/Library/Frameworks/Tcl.framework/Versions/8.5/Resources/Scripts/msgs/fr_ch.msg',
   'DATA'),
  ('tcl/encoding/iso8859-15.enc',
   '/System/Library/Frameworks/Tcl.framework/Versions/8.5/Resources/Scripts/encoding/iso8859-15.enc',
   'DATA'),
  ('tcl/msgs/nl_be.msg',
   '/System/Library/Frameworks/Tcl.framework/Versions/8.5/Resources/Scripts/msgs/nl_be.msg',
   'DATA'),
  ('tcl/msgs/cs.msg',
   '/System/Library/Frameworks/Tcl.framework/Versions/8.5/Resources/Scripts/msgs/cs.msg',
   'DATA'),
  ('tcl/msgs/en_zw.msg',
   '/System/Library/Frameworks/Tcl.framework/Versions/8.5/Resources/Scripts/msgs/en_zw.msg',
   'DATA'),
  ('tk/msgs/pt.msg',
   '/System/Library/Frameworks/Tk.framework/Versions/8.5/Resources/Scripts/msgs/pt.msg',
   'DATA'),
  ('tcl/msgs/ru.msg',
   '/System/Library/Frameworks/Tcl.framework/Versions/8.5/Resources/Scripts/msgs/ru.msg',
   'DATA'),
  ('tcl/msgs/pl.msg',
   '/System/Library/Frameworks/Tcl.framework/Versions/8.5/Resources/Scripts/msgs/pl.msg',
   'DATA'),
  ('tcl/msgs/te.msg',
   '/System/Library/Frameworks/Tcl.framework/Versions/8.5/Resources/Scripts/msgs/te.msg',
   'DATA'),
  ('tcl/encoding/gb2312-raw.enc',
   '/System/Library/Frameworks/Tcl.framework/Versions/8.5/Resources/Scripts/encoding/gb2312-raw.enc',
   'DATA'),
  ('tcl/msgs/es_ar.msg',
   '/System/Library/Frameworks/Tcl.framework/Versions/8.5/Resources/Scripts/msgs/es_ar.msg',
   'DATA'),
  ('tcl/encoding/iso8859-16.enc',
   '/System/Library/Frameworks/Tcl.framework/Versions/8.5/Resources/Scripts/encoding/iso8859-16.enc',
   'DATA'),
  ('tcl/msgs/fr.msg',
   '/System/Library/Frameworks/Tcl.framework/Versions/8.5/Resources/Scripts/msgs/fr.msg',
   'DATA'),
  ('tk/msgs/hu.msg',
   '/System/Library/Frameworks/Tk.framework/Versions/8.5/Resources/Scripts/msgs/hu.msg',
   'DATA'),
  ('tk/button.tcl',
   '/System/Library/Frameworks/Tk.framework/Versions/8.5/Resources/Scripts/button.tcl',
   'DATA'),
  ('tcl/msgs/pt.msg',
   '/System/Library/Frameworks/Tcl.framework/Versions/8.5/Resources/Scripts/msgs/pt.msg',
   'DATA'),
  ('tk/ttk/winTheme.tcl',
   '/System/Library/Frameworks/Tk.framework/Versions/8.5/Resources/Scripts/ttk/winTheme.tcl',
   'DATA'),
  ('tcl/msgs/kl_gl.msg',
   '/System/Library/Frameworks/Tcl.framework/Versions/8.5/Resources/Scripts/msgs/kl_gl.msg',
   'DATA'),
  ('tk/menu.tcl',
   '/System/Library/Frameworks/Tk.framework/Versions/8.5/Resources/Scripts/menu.tcl',
   'DATA'),
  ('tcl/encoding/iso8859-8.enc',
   '/System/Library/Frameworks/Tcl.framework/Versions/8.5/Resources/Scripts/encoding/iso8859-8.enc',
   'DATA'),
  ('tcl/encoding/iso8859-7.enc',
   '/System/Library/Frameworks/Tcl.framework/Versions/8.5/Resources/Scripts/encoding/iso8859-7.enc',
   'DATA'),
  ('tcl/msgs/ko.msg',
   '/System/Library/Frameworks/Tcl.framework/Versions/8.5/Resources/Scripts/msgs/ko.msg',
   'DATA'),
  ('tk/ttk/ttk.tcl',
   '/System/Library/Frameworks/Tk.framework/Versions/8.5/Resources/Scripts/ttk/ttk.tcl',
   'DATA'),
  ('tk/tkfbox.tcl',
   '/System/Library/Frameworks/Tk.framework/Versions/8.5/Resources/Scripts/tkfbox.tcl',
   'DATA'),
  ('tk/palette.tcl',
   '/System/Library/Frameworks/Tk.framework/Versions/8.5/Resources/Scripts/palette.tcl',
   'DATA'),
  ('tk/msgs/es.msg',
   '/System/Library/Frameworks/Tk.framework/Versions/8.5/Resources/Scripts/msgs/es.msg',
   'DATA'),
  ('tcl/msgs/be.msg',
   '/System/Library/Frameworks/Tcl.framework/Versions/8.5/Resources/Scripts/msgs/be.msg',
   'DATA'),
  ('tcl/encoding/cp852.enc',
   '/System/Library/Frameworks/Tcl.framework/Versions/8.5/Resources/Scripts/encoding/cp852.enc',
   'DATA'),
  ('tcl/msgs/bn_in.msg',
   '/System/Library/Frameworks/Tcl.framework/Versions/8.5/Resources/Scripts/msgs/bn_in.msg',
   'DATA'),
  ('tk/msgs/cs.msg',
   '/System/Library/Frameworks/Tk.framework/Versions/8.5/Resources/Scripts/msgs/cs.msg',
   'DATA'),
  ('tcl/encoding/cp1256.enc',
   '/System/Library/Frameworks/Tcl.framework/Versions/8.5/Resources/Scripts/encoding/cp1256.enc',
   'DATA'),
  ('tcl/msgs/fa.msg',
   '/System/Library/Frameworks/Tcl.framework/Versions/8.5/Resources/Scripts/msgs/fa.msg',
   'DATA'),
  ('tcl/encoding/cp855.enc',
   '/System/Library/Frameworks/Tcl.framework/Versions/8.5/Resources/Scripts/encoding/cp855.enc',
   'DATA'),
  ('tcl/msgs/fi.msg',
   '/System/Library/Frameworks/Tcl.framework/Versions/8.5/Resources/Scripts/msgs/fi.msg',
   'DATA'),
  ('tk/msgs/en_gb.msg',
   '/System/Library/Frameworks/Tk.framework/Versions/8.5/Resources/Scripts/msgs/en_gb.msg',
   'DATA'),
  ('tcl/auto.tcl',
   '/System/Library/Frameworks/Tcl.framework/Versions/8.5/Resources/Scripts/auto.tcl',
   'DATA'),
  ('tk/choosedir.tcl',
   '/System/Library/Frameworks/Tk.framework/Versions/8.5/Resources/Scripts/choosedir.tcl',
   'DATA'),
  ('tcl/encoding/macJapan.enc',
   '/System/Library/Frameworks/Tcl.framework/Versions/8.5/Resources/Scripts/encoding/macJapan.enc',
   'DATA'),
  ('tcl/msgs/en_nz.msg',
   '/System/Library/Frameworks/Tcl.framework/Versions/8.5/Resources/Scripts/msgs/en_nz.msg',
   'DATA'),
  ('tcl/msgs/id.msg',
   '/System/Library/Frameworks/Tcl.framework/Versions/8.5/Resources/Scripts/msgs/id.msg',
   'DATA'),
  ('tk/tk.tcl',
   '/System/Library/Frameworks/Tk.framework/Versions/8.5/Resources/Scripts/tk.tcl',
   'DATA'),
  ('tcl/msgs/ga.msg',
   '/System/Library/Frameworks/Tcl.framework/Versions/8.5/Resources/Scripts/msgs/ga.msg',
   'DATA'),
  ('tk/tclIndex',
   '/System/Library/Frameworks/Tk.framework/Versions/8.5/Resources/Scripts/tclIndex',
   'DATA'),
  ('tcl/msgs/gl_es.msg',
   '/System/Library/Frameworks/Tcl.framework/Versions/8.5/Resources/Scripts/msgs/gl_es.msg',
   'DATA'),
  ('tcl/encoding/macRomania.enc',
   '/System/Library/Frameworks/Tcl.framework/Versions/8.5/Resources/Scripts/encoding/macRomania.enc',
   'DATA'),
  ('tcl/msgs/es_py.msg',
   '/System/Library/Frameworks/Tcl.framework/Versions/8.5/Resources/Scripts/msgs/es_py.msg',
   'DATA'),
  ('tk/ttk/utils.tcl',
   '/System/Library/Frameworks/Tk.framework/Versions/8.5/Resources/Scripts/ttk/utils.tcl',
   'DATA'),
  ('tcl/msgs/ar.msg',
   '/System/Library/Frameworks/Tcl.framework/Versions/8.5/Resources/Scripts/msgs/ar.msg',
   'DATA'),
  ('tk/images/pwrdLogo200.gif',
   '/System/Library/Frameworks/Tk.framework/Versions/8.5/Resources/Scripts/images/pwrdLogo200.gif',
   'DATA'),
  ('tcl/tm.tcl',
   '/System/Library/Frameworks/Tcl.framework/Versions/8.5/Resources/Scripts/tm.tcl',
   'DATA'),
  ('tcl/msgs/es_co.msg',
   '/System/Library/Frameworks/Tcl.framework/Versions/8.5/Resources/Scripts/msgs/es_co.msg',
   'DATA'),
  ('tcl/msgs/hr.msg',
   '/System/Library/Frameworks/Tcl.framework/Versions/8.5/Resources/Scripts/msgs/hr.msg',
   'DATA'),
  ('tcl/encoding/euc-cn.enc',
   '/System/Library/Frameworks/Tcl.framework/Versions/8.5/Resources/Scripts/encoding/euc-cn.enc',
   'DATA'),
  ('tcl/msgs/zh.msg',
   '/System/Library/Frameworks/Tcl.framework/Versions/8.5/Resources/Scripts/msgs/zh.msg',
   'DATA'),
  ('tcl/encoding/ebcdic.enc',
   '/System/Library/Frameworks/Tcl.framework/Versions/8.5/Resources/Scripts/encoding/ebcdic.enc',
   'DATA'),
  ('tcl/msgs/el.msg',
   '/System/Library/Frameworks/Tcl.framework/Versions/8.5/Resources/Scripts/msgs/el.msg',
   'DATA'),
  ('tcl/encoding/cp869.enc',
   '/System/Library/Frameworks/Tcl.framework/Versions/8.5/Resources/Scripts/encoding/cp869.enc',
   'DATA'),
  ('tk/bgerror.tcl',
   '/System/Library/Frameworks/Tk.framework/Versions/8.5/Resources/Scripts/bgerror.tcl',
   'DATA'),
  ('tcl/encoding/iso8859-3.enc',
   '/System/Library/Frameworks/Tcl.framework/Versions/8.5/Resources/Scripts/encoding/iso8859-3.enc',
   'DATA'),
  ('tcl/encoding/cp864.enc',
   '/System/Library/Frameworks/Tcl.framework/Versions/8.5/Resources/Scripts/encoding/cp864.enc',
   'DATA'),
  ('tcl/msgs/es_sv.msg',
   '/System/Library/Frameworks/Tcl.framework/Versions/8.5/Resources/Scripts/msgs/es_sv.msg',
   'DATA'),
  ('tcl/encoding/ksc5601.enc',
   '/System/Library/Frameworks/Tcl.framework/Versions/8.5/Resources/Scripts/encoding/ksc5601.enc',
   'DATA'),
  ('tk/entry.tcl',
   '/System/Library/Frameworks/Tk.framework/Versions/8.5/Resources/Scripts/entry.tcl',
   'DATA'),
  ('tk/pkgIndex.tcl',
   '/System/Library/Frameworks/Tk.framework/Versions/8.5/Resources/Scripts/pkgIndex.tcl',
   'DATA'),
  ('tcl/msgs/et.msg',
   '/System/Library/Frameworks/Tcl.framework/Versions/8.5/Resources/Scripts/msgs/et.msg',
   'DATA'),
  ('tcl/msgs/es_pr.msg',
   '/System/Library/Frameworks/Tcl.framework/Versions/8.5/Resources/Scripts/msgs/es_pr.msg',
   'DATA'),
  ('tk/msgs/it.msg',
   '/System/Library/Frameworks/Tk.framework/Versions/8.5/Resources/Scripts/msgs/it.msg',
   'DATA'),
  ('tk/images/pwrdLogo150.gif',
   '/System/Library/Frameworks/Tk.framework/Versions/8.5/Resources/Scripts/images/pwrdLogo150.gif',
   'DATA'),
  ('tcl/encoding/cp1252.enc',
   '/System/Library/Frameworks/Tcl.framework/Versions/8.5/Resources/Scripts/encoding/cp1252.enc',
   'DATA'),
  ('tcl/msgs/sr.msg',
   '/System/Library/Frameworks/Tcl.framework/Versions/8.5/Resources/Scripts/msgs/sr.msg',
   'DATA')],
 False,
 False,
 False,
 [])
