('/Users/rc/tutoriales/raa-bee-code/search-excel-data/appExp/build/read/PYZ-00.pyz',
 [('doctest',
   '/usr/local/Cellar/python/3.7.6_1/Frameworks/Python.framework/Versions/3.7/lib/python3.7/doctest.py',
   'PYMODULE'),
  ('argparse',
   '/usr/local/Cellar/python/3.7.6_1/Frameworks/Python.framework/Versions/3.7/lib/python3.7/argparse.py',
   'PYMODULE'),
  ('textwrap',
   '/usr/local/Cellar/python/3.7.6_1/Frameworks/Python.framework/Versions/3.7/lib/python3.7/textwrap.py',
   'PYMODULE'),
  ('copy',
   '/usr/local/Cellar/python/3.7.6_1/Frameworks/Python.framework/Versions/3.7/lib/python3.7/copy.py',
   'PYMODULE'),
  ('gettext',
   '/usr/local/Cellar/python/3.7.6_1/Frameworks/Python.framework/Versions/3.7/lib/python3.7/gettext.py',
   'PYMODULE'),
  ('struct',
   '/usr/local/Cellar/python/3.7.6_1/Frameworks/Python.framework/Versions/3.7/lib/python3.7/struct.py',
   'PYMODULE'),
  ('unittest',
   '/usr/local/Cellar/python/3.7.6_1/Frameworks/Python.framework/Versions/3.7/lib/python3.7/unittest/__init__.py',
   'PYMODULE'),
  ('posixpath',
   '/usr/local/Cellar/python/3.7.6_1/Frameworks/Python.framework/Versions/3.7/lib/python3.7/posixpath.py',
   'PYMODULE'),
  ('genericpath',
   '/usr/local/Cellar/python/3.7.6_1/Frameworks/Python.framework/Versions/3.7/lib/python3.7/genericpath.py',
   'PYMODULE'),
  ('stat',
   '/usr/local/Cellar/python/3.7.6_1/Frameworks/Python.framework/Versions/3.7/lib/python3.7/stat.py',
   'PYMODULE'),
  ('unittest.signals',
   '/usr/local/Cellar/python/3.7.6_1/Frameworks/Python.framework/Versions/3.7/lib/python3.7/unittest/signals.py',
   'PYMODULE'),
  ('signal',
   '/usr/local/Cellar/python/3.7.6_1/Frameworks/Python.framework/Versions/3.7/lib/python3.7/signal.py',
   'PYMODULE'),
  ('unittest.main',
   '/usr/local/Cellar/python/3.7.6_1/Frameworks/Python.framework/Versions/3.7/lib/python3.7/unittest/main.py',
   'PYMODULE'),
  ('unittest.runner',
   '/usr/local/Cellar/python/3.7.6_1/Frameworks/Python.framework/Versions/3.7/lib/python3.7/unittest/runner.py',
   'PYMODULE'),
  ('_strptime',
   '/usr/local/Cellar/python/3.7.6_1/Frameworks/Python.framework/Versions/3.7/lib/python3.7/_strptime.py',
   'PYMODULE'),
  ('datetime',
   '/usr/local/Cellar/python/3.7.6_1/Frameworks/Python.framework/Versions/3.7/lib/python3.7/datetime.py',
   'PYMODULE'),
  ('calendar',
   '/usr/local/Cellar/python/3.7.6_1/Frameworks/Python.framework/Versions/3.7/lib/python3.7/calendar.py',
   'PYMODULE'),
  ('unittest.loader',
   '/usr/local/Cellar/python/3.7.6_1/Frameworks/Python.framework/Versions/3.7/lib/python3.7/unittest/loader.py',
   'PYMODULE'),
  ('fnmatch',
   '/usr/local/Cellar/python/3.7.6_1/Frameworks/Python.framework/Versions/3.7/lib/python3.7/fnmatch.py',
   'PYMODULE'),
  ('unittest.suite',
   '/usr/local/Cellar/python/3.7.6_1/Frameworks/Python.framework/Versions/3.7/lib/python3.7/unittest/suite.py',
   'PYMODULE'),
  ('unittest.case',
   '/usr/local/Cellar/python/3.7.6_1/Frameworks/Python.framework/Versions/3.7/lib/python3.7/unittest/case.py',
   'PYMODULE'),
  ('contextlib',
   '/usr/local/Cellar/python/3.7.6_1/Frameworks/Python.framework/Versions/3.7/lib/python3.7/contextlib.py',
   'PYMODULE'),
  ('pprint',
   '/usr/local/Cellar/python/3.7.6_1/Frameworks/Python.framework/Versions/3.7/lib/python3.7/pprint.py',
   'PYMODULE'),
  ('logging',
   '/usr/local/Cellar/python/3.7.6_1/Frameworks/Python.framework/Versions/3.7/lib/python3.7/logging/__init__.py',
   'PYMODULE'),
  ('pickle',
   '/usr/local/Cellar/python/3.7.6_1/Frameworks/Python.framework/Versions/3.7/lib/python3.7/pickle.py',
   'PYMODULE'),
  ('_compat_pickle',
   '/usr/local/Cellar/python/3.7.6_1/Frameworks/Python.framework/Versions/3.7/lib/python3.7/_compat_pickle.py',
   'PYMODULE'),
  ('threading',
   '/usr/local/Cellar/python/3.7.6_1/Frameworks/Python.framework/Versions/3.7/lib/python3.7/threading.py',
   'PYMODULE'),
  ('_threading_local',
   '/usr/local/Cellar/python/3.7.6_1/Frameworks/Python.framework/Versions/3.7/lib/python3.7/_threading_local.py',
   'PYMODULE'),
  ('string',
   '/usr/local/Cellar/python/3.7.6_1/Frameworks/Python.framework/Versions/3.7/lib/python3.7/string.py',
   'PYMODULE'),
  ('unittest.result',
   '/usr/local/Cellar/python/3.7.6_1/Frameworks/Python.framework/Versions/3.7/lib/python3.7/unittest/result.py',
   'PYMODULE'),
  ('unittest.util',
   '/usr/local/Cellar/python/3.7.6_1/Frameworks/Python.framework/Versions/3.7/lib/python3.7/unittest/util.py',
   'PYMODULE'),
  ('pdb',
   '/usr/local/Cellar/python/3.7.6_1/Frameworks/Python.framework/Versions/3.7/lib/python3.7/pdb.py',
   'PYMODULE'),
  ('getopt',
   '/usr/local/Cellar/python/3.7.6_1/Frameworks/Python.framework/Versions/3.7/lib/python3.7/getopt.py',
   'PYMODULE'),
  ('pydoc',
   '/usr/local/Cellar/python/3.7.6_1/Frameworks/Python.framework/Versions/3.7/lib/python3.7/pydoc.py',
   'PYMODULE'),
  ('webbrowser',
   '/usr/local/Cellar/python/3.7.6_1/Frameworks/Python.framework/Versions/3.7/lib/python3.7/webbrowser.py',
   'PYMODULE'),
  ('socket',
   '/usr/local/Cellar/python/3.7.6_1/Frameworks/Python.framework/Versions/3.7/lib/python3.7/socket.py',
   'PYMODULE'),
  ('selectors',
   '/usr/local/Cellar/python/3.7.6_1/Frameworks/Python.framework/Versions/3.7/lib/python3.7/selectors.py',
   'PYMODULE'),
  ('shutil',
   '/usr/local/Cellar/python/3.7.6_1/Frameworks/Python.framework/Versions/3.7/lib/python3.7/shutil.py',
   'PYMODULE'),
  ('zipfile',
   '/usr/local/Cellar/python/3.7.6_1/Frameworks/Python.framework/Versions/3.7/lib/python3.7/zipfile.py',
   'PYMODULE'),
  ('py_compile',
   '/usr/local/Cellar/python/3.7.6_1/Frameworks/Python.framework/Versions/3.7/lib/python3.7/py_compile.py',
   'PYMODULE'),
  ('tarfile',
   '/usr/local/Cellar/python/3.7.6_1/Frameworks/Python.framework/Versions/3.7/lib/python3.7/tarfile.py',
   'PYMODULE'),
  ('gzip',
   '/usr/local/Cellar/python/3.7.6_1/Frameworks/Python.framework/Versions/3.7/lib/python3.7/gzip.py',
   'PYMODULE'),
  ('_compression',
   '/usr/local/Cellar/python/3.7.6_1/Frameworks/Python.framework/Versions/3.7/lib/python3.7/_compression.py',
   'PYMODULE'),
  ('lzma',
   '/usr/local/Cellar/python/3.7.6_1/Frameworks/Python.framework/Versions/3.7/lib/python3.7/lzma.py',
   'PYMODULE'),
  ('bz2',
   '/usr/local/Cellar/python/3.7.6_1/Frameworks/Python.framework/Versions/3.7/lib/python3.7/bz2.py',
   'PYMODULE'),
  ('email.message',
   '/usr/local/Cellar/python/3.7.6_1/Frameworks/Python.framework/Versions/3.7/lib/python3.7/email/message.py',
   'PYMODULE'),
  ('email.policy',
   '/usr/local/Cellar/python/3.7.6_1/Frameworks/Python.framework/Versions/3.7/lib/python3.7/email/policy.py',
   'PYMODULE'),
  ('email.contentmanager',
   '/usr/local/Cellar/python/3.7.6_1/Frameworks/Python.framework/Versions/3.7/lib/python3.7/email/contentmanager.py',
   'PYMODULE'),
  ('email.quoprimime',
   '/usr/local/Cellar/python/3.7.6_1/Frameworks/Python.framework/Versions/3.7/lib/python3.7/email/quoprimime.py',
   'PYMODULE'),
  ('email.headerregistry',
   '/usr/local/Cellar/python/3.7.6_1/Frameworks/Python.framework/Versions/3.7/lib/python3.7/email/headerregistry.py',
   'PYMODULE'),
  ('email._header_value_parser',
   '/usr/local/Cellar/python/3.7.6_1/Frameworks/Python.framework/Versions/3.7/lib/python3.7/email/_header_value_parser.py',
   'PYMODULE'),
  ('urllib',
   '/usr/local/Cellar/python/3.7.6_1/Frameworks/Python.framework/Versions/3.7/lib/python3.7/urllib/__init__.py',
   'PYMODULE'),
  ('email.iterators',
   '/usr/local/Cellar/python/3.7.6_1/Frameworks/Python.framework/Versions/3.7/lib/python3.7/email/iterators.py',
   'PYMODULE'),
  ('email.generator',
   '/usr/local/Cellar/python/3.7.6_1/Frameworks/Python.framework/Versions/3.7/lib/python3.7/email/generator.py',
   'PYMODULE'),
  ('random',
   '/usr/local/Cellar/python/3.7.6_1/Frameworks/Python.framework/Versions/3.7/lib/python3.7/random.py',
   'PYMODULE'),
  ('bisect',
   '/usr/local/Cellar/python/3.7.6_1/Frameworks/Python.framework/Versions/3.7/lib/python3.7/bisect.py',
   'PYMODULE'),
  ('hashlib',
   '/usr/local/Cellar/python/3.7.6_1/Frameworks/Python.framework/Versions/3.7/lib/python3.7/hashlib.py',
   'PYMODULE'),
  ('email._encoded_words',
   '/usr/local/Cellar/python/3.7.6_1/Frameworks/Python.framework/Versions/3.7/lib/python3.7/email/_encoded_words.py',
   'PYMODULE'),
  ('base64',
   '/usr/local/Cellar/python/3.7.6_1/Frameworks/Python.framework/Versions/3.7/lib/python3.7/base64.py',
   'PYMODULE'),
  ('email.charset',
   '/usr/local/Cellar/python/3.7.6_1/Frameworks/Python.framework/Versions/3.7/lib/python3.7/email/charset.py',
   'PYMODULE'),
  ('email.encoders',
   '/usr/local/Cellar/python/3.7.6_1/Frameworks/Python.framework/Versions/3.7/lib/python3.7/email/encoders.py',
   'PYMODULE'),
  ('email.base64mime',
   '/usr/local/Cellar/python/3.7.6_1/Frameworks/Python.framework/Versions/3.7/lib/python3.7/email/base64mime.py',
   'PYMODULE'),
  ('email._policybase',
   '/usr/local/Cellar/python/3.7.6_1/Frameworks/Python.framework/Versions/3.7/lib/python3.7/email/_policybase.py',
   'PYMODULE'),
  ('email.header',
   '/usr/local/Cellar/python/3.7.6_1/Frameworks/Python.framework/Versions/3.7/lib/python3.7/email/header.py',
   'PYMODULE'),
  ('email.errors',
   '/usr/local/Cellar/python/3.7.6_1/Frameworks/Python.framework/Versions/3.7/lib/python3.7/email/errors.py',
   'PYMODULE'),
  ('email.utils',
   '/usr/local/Cellar/python/3.7.6_1/Frameworks/Python.framework/Versions/3.7/lib/python3.7/email/utils.py',
   'PYMODULE'),
  ('email._parseaddr',
   '/usr/local/Cellar/python/3.7.6_1/Frameworks/Python.framework/Versions/3.7/lib/python3.7/email/_parseaddr.py',
   'PYMODULE'),
  ('email',
   '/usr/local/Cellar/python/3.7.6_1/Frameworks/Python.framework/Versions/3.7/lib/python3.7/email/__init__.py',
   'PYMODULE'),
  ('email.parser',
   '/usr/local/Cellar/python/3.7.6_1/Frameworks/Python.framework/Versions/3.7/lib/python3.7/email/parser.py',
   'PYMODULE'),
  ('email.feedparser',
   '/usr/local/Cellar/python/3.7.6_1/Frameworks/Python.framework/Versions/3.7/lib/python3.7/email/feedparser.py',
   'PYMODULE'),
  ('quopri',
   '/usr/local/Cellar/python/3.7.6_1/Frameworks/Python.framework/Versions/3.7/lib/python3.7/quopri.py',
   'PYMODULE'),
  ('uu',
   '/usr/local/Cellar/python/3.7.6_1/Frameworks/Python.framework/Versions/3.7/lib/python3.7/uu.py',
   'PYMODULE'),
  ('optparse',
   '/usr/local/Cellar/python/3.7.6_1/Frameworks/Python.framework/Versions/3.7/lib/python3.7/optparse.py',
   'PYMODULE'),
  ('http.server',
   '/usr/local/Cellar/python/3.7.6_1/Frameworks/Python.framework/Versions/3.7/lib/python3.7/http/server.py',
   'PYMODULE'),
  ('http',
   '/usr/local/Cellar/python/3.7.6_1/Frameworks/Python.framework/Versions/3.7/lib/python3.7/http/__init__.py',
   'PYMODULE'),
  ('socketserver',
   '/usr/local/Cellar/python/3.7.6_1/Frameworks/Python.framework/Versions/3.7/lib/python3.7/socketserver.py',
   'PYMODULE'),
  ('mimetypes',
   '/usr/local/Cellar/python/3.7.6_1/Frameworks/Python.framework/Versions/3.7/lib/python3.7/mimetypes.py',
   'PYMODULE'),
  ('http.client',
   '/usr/local/Cellar/python/3.7.6_1/Frameworks/Python.framework/Versions/3.7/lib/python3.7/http/client.py',
   'PYMODULE'),
  ('ssl',
   '/usr/local/Cellar/python/3.7.6_1/Frameworks/Python.framework/Versions/3.7/lib/python3.7/ssl.py',
   'PYMODULE'),
  ('html',
   '/usr/local/Cellar/python/3.7.6_1/Frameworks/Python.framework/Versions/3.7/lib/python3.7/html/__init__.py',
   'PYMODULE'),
  ('html.entities',
   '/usr/local/Cellar/python/3.7.6_1/Frameworks/Python.framework/Versions/3.7/lib/python3.7/html/entities.py',
   'PYMODULE'),
  ('pydoc_data.topics',
   '/usr/local/Cellar/python/3.7.6_1/Frameworks/Python.framework/Versions/3.7/lib/python3.7/pydoc_data/topics.py',
   'PYMODULE'),
  ('pydoc_data',
   '/usr/local/Cellar/python/3.7.6_1/Frameworks/Python.framework/Versions/3.7/lib/python3.7/pydoc_data/__init__.py',
   'PYMODULE'),
  ('tty',
   '/usr/local/Cellar/python/3.7.6_1/Frameworks/Python.framework/Versions/3.7/lib/python3.7/tty.py',
   'PYMODULE'),
  ('subprocess',
   '/usr/local/Cellar/python/3.7.6_1/Frameworks/Python.framework/Versions/3.7/lib/python3.7/subprocess.py',
   'PYMODULE'),
  ('tempfile',
   '/usr/local/Cellar/python/3.7.6_1/Frameworks/Python.framework/Versions/3.7/lib/python3.7/tempfile.py',
   'PYMODULE'),
  ('urllib.parse',
   '/usr/local/Cellar/python/3.7.6_1/Frameworks/Python.framework/Versions/3.7/lib/python3.7/urllib/parse.py',
   'PYMODULE'),
  ('tokenize',
   '/usr/local/Cellar/python/3.7.6_1/Frameworks/Python.framework/Versions/3.7/lib/python3.7/tokenize.py',
   'PYMODULE'),
  ('token',
   '/usr/local/Cellar/python/3.7.6_1/Frameworks/Python.framework/Versions/3.7/lib/python3.7/token.py',
   'PYMODULE'),
  ('platform',
   '/usr/local/Cellar/python/3.7.6_1/Frameworks/Python.framework/Versions/3.7/lib/python3.7/platform.py',
   'PYMODULE'),
  ('plistlib',
   '/usr/local/Cellar/python/3.7.6_1/Frameworks/Python.framework/Versions/3.7/lib/python3.7/plistlib.py',
   'PYMODULE'),
  ('xml.parsers.expat',
   '/usr/local/Cellar/python/3.7.6_1/Frameworks/Python.framework/Versions/3.7/lib/python3.7/xml/parsers/expat.py',
   'PYMODULE'),
  ('xml.parsers',
   '/usr/local/Cellar/python/3.7.6_1/Frameworks/Python.framework/Versions/3.7/lib/python3.7/xml/parsers/__init__.py',
   'PYMODULE'),
  ('xml',
   '/usr/local/Cellar/python/3.7.6_1/Frameworks/Python.framework/Versions/3.7/lib/python3.7/xml/__init__.py',
   'PYMODULE'),
  ('xml.sax.expatreader',
   '/usr/local/Cellar/python/3.7.6_1/Frameworks/Python.framework/Versions/3.7/lib/python3.7/xml/sax/expatreader.py',
   'PYMODULE'),
  ('xml.sax.saxutils',
   '/usr/local/Cellar/python/3.7.6_1/Frameworks/Python.framework/Versions/3.7/lib/python3.7/xml/sax/saxutils.py',
   'PYMODULE'),
  ('urllib.request',
   '/usr/local/Cellar/python/3.7.6_1/Frameworks/Python.framework/Versions/3.7/lib/python3.7/urllib/request.py',
   'PYMODULE'),
  ('getpass',
   '/usr/local/Cellar/python/3.7.6_1/Frameworks/Python.framework/Versions/3.7/lib/python3.7/getpass.py',
   'PYMODULE'),
  ('nturl2path',
   '/usr/local/Cellar/python/3.7.6_1/Frameworks/Python.framework/Versions/3.7/lib/python3.7/nturl2path.py',
   'PYMODULE'),
  ('ftplib',
   '/usr/local/Cellar/python/3.7.6_1/Frameworks/Python.framework/Versions/3.7/lib/python3.7/ftplib.py',
   'PYMODULE'),
  ('netrc',
   '/usr/local/Cellar/python/3.7.6_1/Frameworks/Python.framework/Versions/3.7/lib/python3.7/netrc.py',
   'PYMODULE'),
  ('http.cookiejar',
   '/usr/local/Cellar/python/3.7.6_1/Frameworks/Python.framework/Versions/3.7/lib/python3.7/http/cookiejar.py',
   'PYMODULE'),
  ('urllib.response',
   '/usr/local/Cellar/python/3.7.6_1/Frameworks/Python.framework/Versions/3.7/lib/python3.7/urllib/response.py',
   'PYMODULE'),
  ('urllib.error',
   '/usr/local/Cellar/python/3.7.6_1/Frameworks/Python.framework/Versions/3.7/lib/python3.7/urllib/error.py',
   'PYMODULE'),
  ('xml.sax',
   '/usr/local/Cellar/python/3.7.6_1/Frameworks/Python.framework/Versions/3.7/lib/python3.7/xml/sax/__init__.py',
   'PYMODULE'),
  ('xml.sax.handler',
   '/usr/local/Cellar/python/3.7.6_1/Frameworks/Python.framework/Versions/3.7/lib/python3.7/xml/sax/handler.py',
   'PYMODULE'),
  ('xml.sax._exceptions',
   '/usr/local/Cellar/python/3.7.6_1/Frameworks/Python.framework/Versions/3.7/lib/python3.7/xml/sax/_exceptions.py',
   'PYMODULE'),
  ('xml.sax.xmlreader',
   '/usr/local/Cellar/python/3.7.6_1/Frameworks/Python.framework/Versions/3.7/lib/python3.7/xml/sax/xmlreader.py',
   'PYMODULE'),
  ('pkgutil',
   '/usr/local/Cellar/python/3.7.6_1/Frameworks/Python.framework/Versions/3.7/lib/python3.7/pkgutil.py',
   'PYMODULE'),
  ('importlib',
   '/usr/local/Cellar/python/3.7.6_1/Frameworks/Python.framework/Versions/3.7/lib/python3.7/importlib/__init__.py',
   'PYMODULE'),
  ('importlib.abc',
   '/usr/local/Cellar/python/3.7.6_1/Frameworks/Python.framework/Versions/3.7/lib/python3.7/importlib/abc.py',
   'PYMODULE'),
  ('importlib.util',
   '/usr/local/Cellar/python/3.7.6_1/Frameworks/Python.framework/Versions/3.7/lib/python3.7/importlib/util.py',
   'PYMODULE'),
  ('importlib.machinery',
   '/usr/local/Cellar/python/3.7.6_1/Frameworks/Python.framework/Versions/3.7/lib/python3.7/importlib/machinery.py',
   'PYMODULE'),
  ('importlib._bootstrap_external',
   '/usr/local/Cellar/python/3.7.6_1/Frameworks/Python.framework/Versions/3.7/lib/python3.7/importlib/_bootstrap_external.py',
   'PYMODULE'),
  ('importlib._bootstrap',
   '/usr/local/Cellar/python/3.7.6_1/Frameworks/Python.framework/Versions/3.7/lib/python3.7/importlib/_bootstrap.py',
   'PYMODULE'),
  ('runpy',
   '/usr/local/Cellar/python/3.7.6_1/Frameworks/Python.framework/Versions/3.7/lib/python3.7/runpy.py',
   'PYMODULE'),
  ('shlex',
   '/usr/local/Cellar/python/3.7.6_1/Frameworks/Python.framework/Versions/3.7/lib/python3.7/shlex.py',
   'PYMODULE'),
  ('glob',
   '/usr/local/Cellar/python/3.7.6_1/Frameworks/Python.framework/Versions/3.7/lib/python3.7/glob.py',
   'PYMODULE'),
  ('code',
   '/usr/local/Cellar/python/3.7.6_1/Frameworks/Python.framework/Versions/3.7/lib/python3.7/code.py',
   'PYMODULE'),
  ('codeop',
   '/usr/local/Cellar/python/3.7.6_1/Frameworks/Python.framework/Versions/3.7/lib/python3.7/codeop.py',
   'PYMODULE'),
  ('dis',
   '/usr/local/Cellar/python/3.7.6_1/Frameworks/Python.framework/Versions/3.7/lib/python3.7/dis.py',
   'PYMODULE'),
  ('opcode',
   '/usr/local/Cellar/python/3.7.6_1/Frameworks/Python.framework/Versions/3.7/lib/python3.7/opcode.py',
   'PYMODULE'),
  ('bdb',
   '/usr/local/Cellar/python/3.7.6_1/Frameworks/Python.framework/Versions/3.7/lib/python3.7/bdb.py',
   'PYMODULE'),
  ('cmd',
   '/usr/local/Cellar/python/3.7.6_1/Frameworks/Python.framework/Versions/3.7/lib/python3.7/cmd.py',
   'PYMODULE'),
  ('inspect',
   '/usr/local/Cellar/python/3.7.6_1/Frameworks/Python.framework/Versions/3.7/lib/python3.7/inspect.py',
   'PYMODULE'),
  ('ast',
   '/usr/local/Cellar/python/3.7.6_1/Frameworks/Python.framework/Versions/3.7/lib/python3.7/ast.py',
   'PYMODULE'),
  ('difflib',
   '/usr/local/Cellar/python/3.7.6_1/Frameworks/Python.framework/Versions/3.7/lib/python3.7/difflib.py',
   'PYMODULE'),
  ('__future__',
   '/usr/local/Cellar/python/3.7.6_1/Frameworks/Python.framework/Versions/3.7/lib/python3.7/__future__.py',
   'PYMODULE'),
  ('tracemalloc',
   '/usr/local/Cellar/python/3.7.6_1/Frameworks/Python.framework/Versions/3.7/lib/python3.7/tracemalloc.py',
   'PYMODULE'),
  ('_py_abc',
   '/usr/local/Cellar/python/3.7.6_1/Frameworks/Python.framework/Versions/3.7/lib/python3.7/_py_abc.py',
   'PYMODULE'),
  ('stringprep',
   '/usr/local/Cellar/python/3.7.6_1/Frameworks/Python.framework/Versions/3.7/lib/python3.7/stringprep.py',
   'PYMODULE'),
  ('typing',
   '/usr/local/Cellar/python/3.7.6_1/Frameworks/Python.framework/Versions/3.7/lib/python3.7/typing.py',
   'PYMODULE'),
  ('os',
   '/usr/local/Cellar/python/3.7.6_1/Frameworks/Python.framework/Versions/3.7/lib/python3.7/os.py',
   'PYMODULE'),
  ('ntpath',
   '/usr/local/Cellar/python/3.7.6_1/Frameworks/Python.framework/Versions/3.7/lib/python3.7/ntpath.py',
   'PYMODULE'),
  ('xlsxwriter',
   '/usr/local/lib/python3.7/site-packages/xlsxwriter/__init__.py',
   'PYMODULE'),
  ('xlsxwriter.workbook',
   '/usr/local/lib/python3.7/site-packages/xlsxwriter/workbook.py',
   'PYMODULE'),
  ('xlsxwriter.exceptions',
   '/usr/local/lib/python3.7/site-packages/xlsxwriter/exceptions.py',
   'PYMODULE'),
  ('xlsxwriter.chart_stock',
   '/usr/local/lib/python3.7/site-packages/xlsxwriter/chart_stock.py',
   'PYMODULE'),
  ('xlsxwriter.chart_scatter',
   '/usr/local/lib/python3.7/site-packages/xlsxwriter/chart_scatter.py',
   'PYMODULE'),
  ('xlsxwriter.chart_radar',
   '/usr/local/lib/python3.7/site-packages/xlsxwriter/chart_radar.py',
   'PYMODULE'),
  ('xlsxwriter.chart_line',
   '/usr/local/lib/python3.7/site-packages/xlsxwriter/chart_line.py',
   'PYMODULE'),
  ('xlsxwriter.chart_doughnut',
   '/usr/local/lib/python3.7/site-packages/xlsxwriter/chart_doughnut.py',
   'PYMODULE'),
  ('xlsxwriter.chart_column',
   '/usr/local/lib/python3.7/site-packages/xlsxwriter/chart_column.py',
   'PYMODULE'),
  ('xlsxwriter.chart_bar',
   '/usr/local/lib/python3.7/site-packages/xlsxwriter/chart_bar.py',
   'PYMODULE'),
  ('xlsxwriter.chart_area',
   '/usr/local/lib/python3.7/site-packages/xlsxwriter/chart_area.py',
   'PYMODULE'),
  ('xlsxwriter.utility',
   '/usr/local/lib/python3.7/site-packages/xlsxwriter/utility.py',
   'PYMODULE'),
  ('xlsxwriter.packager',
   '/usr/local/lib/python3.7/site-packages/xlsxwriter/packager.py',
   'PYMODULE'),
  ('xlsxwriter.comments',
   '/usr/local/lib/python3.7/site-packages/xlsxwriter/comments.py',
   'PYMODULE'),
  ('xlsxwriter.table',
   '/usr/local/lib/python3.7/site-packages/xlsxwriter/table.py',
   'PYMODULE'),
  ('xlsxwriter.vml',
   '/usr/local/lib/python3.7/site-packages/xlsxwriter/vml.py',
   'PYMODULE'),
  ('xlsxwriter.theme',
   '/usr/local/lib/python3.7/site-packages/xlsxwriter/theme.py',
   'PYMODULE'),
  ('xlsxwriter.styles',
   '/usr/local/lib/python3.7/site-packages/xlsxwriter/styles.py',
   'PYMODULE'),
  ('xlsxwriter.relationships',
   '/usr/local/lib/python3.7/site-packages/xlsxwriter/relationships.py',
   'PYMODULE'),
  ('xlsxwriter.custom',
   '/usr/local/lib/python3.7/site-packages/xlsxwriter/custom.py',
   'PYMODULE'),
  ('xlsxwriter.core',
   '/usr/local/lib/python3.7/site-packages/xlsxwriter/core.py',
   'PYMODULE'),
  ('xlsxwriter.contenttypes',
   '/usr/local/lib/python3.7/site-packages/xlsxwriter/contenttypes.py',
   'PYMODULE'),
  ('xlsxwriter.app',
   '/usr/local/lib/python3.7/site-packages/xlsxwriter/app.py',
   'PYMODULE'),
  ('xlsxwriter.format',
   '/usr/local/lib/python3.7/site-packages/xlsxwriter/format.py',
   'PYMODULE'),
  ('xlsxwriter.sharedstrings',
   '/usr/local/lib/python3.7/site-packages/xlsxwriter/sharedstrings.py',
   'PYMODULE'),
  ('xlsxwriter.chartsheet',
   '/usr/local/lib/python3.7/site-packages/xlsxwriter/chartsheet.py',
   'PYMODULE'),
  ('xlsxwriter.drawing',
   '/usr/local/lib/python3.7/site-packages/xlsxwriter/drawing.py',
   'PYMODULE'),
  ('xlsxwriter.shape',
   '/usr/local/lib/python3.7/site-packages/xlsxwriter/shape.py',
   'PYMODULE'),
  ('xlsxwriter.worksheet',
   '/usr/local/lib/python3.7/site-packages/xlsxwriter/worksheet.py',
   'PYMODULE'),
  ('xlsxwriter.compatibility',
   '/usr/local/lib/python3.7/site-packages/xlsxwriter/compatibility.py',
   'PYMODULE'),
  ('fractions',
   '/usr/local/Cellar/python/3.7.6_1/Frameworks/Python.framework/Versions/3.7/lib/python3.7/fractions.py',
   'PYMODULE'),
  ('numbers',
   '/usr/local/Cellar/python/3.7.6_1/Frameworks/Python.framework/Versions/3.7/lib/python3.7/numbers.py',
   'PYMODULE'),
  ('decimal',
   '/usr/local/Cellar/python/3.7.6_1/Frameworks/Python.framework/Versions/3.7/lib/python3.7/decimal.py',
   'PYMODULE'),
  ('_pydecimal',
   '/usr/local/Cellar/python/3.7.6_1/Frameworks/Python.framework/Versions/3.7/lib/python3.7/_pydecimal.py',
   'PYMODULE'),
  ('contextvars',
   '/usr/local/Cellar/python/3.7.6_1/Frameworks/Python.framework/Versions/3.7/lib/python3.7/contextvars.py',
   'PYMODULE'),
  ('xlsxwriter.chart_pie',
   '/usr/local/lib/python3.7/site-packages/xlsxwriter/chart_pie.py',
   'PYMODULE'),
  ('xlsxwriter.chart',
   '/usr/local/lib/python3.7/site-packages/xlsxwriter/chart.py',
   'PYMODULE'),
  ('xlsxwriter.xmlwriter',
   '/usr/local/lib/python3.7/site-packages/xlsxwriter/xmlwriter.py',
   'PYMODULE'),
  ('tkinter.filedialog',
   '/usr/local/Cellar/python/3.7.6_1/Frameworks/Python.framework/Versions/3.7/lib/python3.7/tkinter/filedialog.py',
   'PYMODULE'),
  ('tkinter.commondialog',
   '/usr/local/Cellar/python/3.7.6_1/Frameworks/Python.framework/Versions/3.7/lib/python3.7/tkinter/commondialog.py',
   'PYMODULE'),
  ('tkinter.dialog',
   '/usr/local/Cellar/python/3.7.6_1/Frameworks/Python.framework/Versions/3.7/lib/python3.7/tkinter/dialog.py',
   'PYMODULE'),
  ('tkinter',
   '/usr/local/Cellar/python/3.7.6_1/Frameworks/Python.framework/Versions/3.7/lib/python3.7/tkinter/__init__.py',
   'PYMODULE'),
  ('tkinter.constants',
   '/usr/local/Cellar/python/3.7.6_1/Frameworks/Python.framework/Versions/3.7/lib/python3.7/tkinter/constants.py',
   'PYMODULE'),
  ('xlrd',
   '/usr/local/lib/python3.7/site-packages/xlrd/__init__.py',
   'PYMODULE'),
  ('xlrd.xlsx',
   '/usr/local/lib/python3.7/site-packages/xlrd/xlsx.py',
   'PYMODULE'),
  ('xml.etree.cElementTree',
   '/usr/local/Cellar/python/3.7.6_1/Frameworks/Python.framework/Versions/3.7/lib/python3.7/xml/etree/cElementTree.py',
   'PYMODULE'),
  ('xml.etree',
   '/usr/local/Cellar/python/3.7.6_1/Frameworks/Python.framework/Versions/3.7/lib/python3.7/xml/etree/__init__.py',
   'PYMODULE'),
  ('xml.etree.ElementPath',
   '/usr/local/Cellar/python/3.7.6_1/Frameworks/Python.framework/Versions/3.7/lib/python3.7/xml/etree/ElementPath.py',
   'PYMODULE'),
  ('xml.etree.ElementTree',
   '/usr/local/Cellar/python/3.7.6_1/Frameworks/Python.framework/Versions/3.7/lib/python3.7/xml/etree/ElementTree.py',
   'PYMODULE'),
  ('xml.etree.ElementInclude',
   '/usr/local/Cellar/python/3.7.6_1/Frameworks/Python.framework/Versions/3.7/lib/python3.7/xml/etree/ElementInclude.py',
   'PYMODULE'),
  ('xlrd.xldate',
   '/usr/local/lib/python3.7/site-packages/xlrd/xldate.py',
   'PYMODULE'),
  ('xlrd.info',
   '/usr/local/lib/python3.7/site-packages/xlrd/info.py',
   'PYMODULE'),
  ('xlrd.formula',
   '/usr/local/lib/python3.7/site-packages/xlrd/formula.py',
   'PYMODULE'),
  ('xlrd.book',
   '/usr/local/lib/python3.7/site-packages/xlrd/book.py',
   'PYMODULE'),
  ('xlrd.sheet',
   '/usr/local/lib/python3.7/site-packages/xlrd/sheet.py',
   'PYMODULE'),
  ('xlrd.formatting',
   '/usr/local/lib/python3.7/site-packages/xlrd/formatting.py',
   'PYMODULE'),
  ('xlrd.compdoc',
   '/usr/local/lib/python3.7/site-packages/xlrd/compdoc.py',
   'PYMODULE'),
  ('xlrd.biffh',
   '/usr/local/lib/python3.7/site-packages/xlrd/biffh.py',
   'PYMODULE'),
  ('xlrd.timemachine',
   '/usr/local/lib/python3.7/site-packages/xlrd/timemachine.py',
   'PYMODULE')])
